{
"type": "FeatureCollection",
"crs": { "type": "name", "properties": { "name": "urn:ogc:def:crs:OGC:1.3:CRS84" } },
"features": [
        { "type": "Feature", "properties": { "FID": 4542, "OBJECTID": 4543, "ID_DESA": "3273180001", "DESA": "CAMPAKA", "KECAMATAN": "ANDIR", "KABUPATEN": "K_BANDUNG", "PROVINSI": "JAWA BARAT", "ID_KEC": "3273180", "ID_KAB": "3273", "ID_PROV": "32", "Shape_Leng": 5202.28868, "Shape_Area": 825525.29178099998, "Luas_Km_": 0.825525 }, "geometry": { "type": "Polygon", "coordinates": [ [ [ 107.56228499999602, -6.899304000415195 ], [ 107.56183899995335, -6.898594999708082 ], [ 107.561773999764, -6.898463999943014 ], [ 107.56143399965714, -6.897904999997789 ], [ 107.5606420001527, -6.896621000194209 ], [ 107.56054299963573, -6.896445999758273 ], [ 107.56044400011685, -6.896271000172624 ], [ 107.56011100036766, -6.895744000045489 ], [ 107.5598340003658, -6.895292000420858 ], [ 107.55972700013442, -6.895118999961344 ], [ 107.55979500024696, -6.895088999607664 ], [ 107.55990000011144, -6.895148000445318 ], [ 107.56010199968574, -6.895230999671271 ], [ 107.56026199995476, -6.895269000274597 ], [ 107.5603209997257, -6.895252999727061 ], [ 107.56035099991283, -6.895350000157087 ], [ 107.56100700027625, -6.89573800023947 ], [ 107.56129699957165, -6.895931999978664 ], [ 107.56161299971065, -6.896190999766803 ], [ 107.56172999980299, -6.89627100033411 ], [ 107.5621389998515, -6.896550999694695 ], [ 107.56216499983142, -6.896558000341586 ], [ 107.56216900043336, -6.896557999644425 ], [ 107.56240499999839, -6.896075000126141 ], [ 107.56244299988765, -6.896009000115129 ], [ 107.56245599983231, -6.896012999738465 ], [ 107.56270100018537, -6.89505200009651 ], [ 107.56286500014548, -6.894715999911994 ], [ 107.56321499960384, -6.894238999993562 ], [ 107.56358200034823, -6.893885999716516 ], [ 107.56377699984527, -6.894032999904271 ], [ 107.56421600040771, -6.89435599984214 ], [ 107.56443799957344, -6.894563999894682 ], [ 107.56466699990612, -6.894753000410466 ], [ 107.56498799961363, -6.895119999823645 ], [ 107.56529600005683, -6.895459000258401 ], [ 107.56554100017718, -6.895746999962087 ], [ 107.56586200021206, -6.896161999938531 ], [ 107.56603900034827, -6.896465000430115 ], [ 107.56622000029869, -6.896793999878201 ], [ 107.56647699979837, -6.897155000209978 ], [ 107.56679799957634, -6.897346999577491 ], [ 107.56698300012437, -6.897369999591093 ], [ 107.56720599993976, -6.897371000211563 ], [ 107.56742999977897, -6.897349999885283 ], [ 107.56778100038714, -6.897230000163646 ], [ 107.56796899994609, -6.897188999924477 ], [ 107.56811300005829, -6.897151000015708 ], [ 107.56843500003058, -6.897092999742342 ], [ 107.5683210003228, -6.897271999850414 ], [ 107.56821399966779, -6.897453999660017 ], [ 107.5680500002349, -6.897590000093744 ], [ 107.56792199983141, -6.897773999894414 ], [ 107.56788099967737, -6.897858999643422 ], [ 107.56772800007624, -6.898164000112788 ], [ 107.56757499986067, -6.898457000207157 ], [ 107.56747699990851, -6.898619999840882 ], [ 107.56746500018517, -6.898637000002423 ], [ 107.56739400038765, -6.898733000367979 ], [ 107.5673920002465, -6.898852999760058 ], [ 107.56731700032772, -6.899183999587933 ], [ 107.56692699989748, -6.899611999560508 ], [ 107.56690100014141, -6.899643999892058 ], [ 107.56680600025591, -6.899782999769563 ], [ 107.56719200030057, -6.900033000134092 ], [ 107.56744099955125, -6.900199000131966 ], [ 107.56826999990638, -6.900784999980434 ], [ 107.56856199961058, -6.900968999886501 ], [ 107.56891600025388, -6.901207000247485 ], [ 107.56900100005517, -6.901262000352565 ], [ 107.56911400010223, -6.901392999896091 ], [ 107.56919400016005, -6.901474999954202 ], [ 107.56925800009087, -6.901568999830883 ], [ 107.57014300040561, -6.902133000245144 ], [ 107.57048699984213, -6.902344000171868 ], [ 107.57079600034545, -6.902554999596339 ], [ 107.57080000004763, -6.902556000123814 ], [ 107.57087300014098, -6.902576999988183 ], [ 107.57121700010647, -6.902824000232004 ], [ 107.57140999963245, -6.902939999562354 ], [ 107.57165300041601, -6.903110000407169 ], [ 107.5720890000772, -6.903403999625366 ], [ 107.5726110004499, -6.903773999596971 ], [ 107.57261400000267, -6.903775000079865 ], [ 107.57265099987072, -6.903802000205035 ], [ 107.57294699959891, -6.903985999818998 ], [ 107.57311199970223, -6.904113999603576 ], [ 107.57319999991611, -6.904169999963432 ], [ 107.57333499981782, -6.904254999579244 ], [ 107.57347900025459, -6.904342000150147 ], [ 107.57370500017531, -6.904479999630579 ], [ 107.57456599978151, -6.905069999650794 ], [ 107.57512500038533, -6.905434000094451 ], [ 107.57664400044345, -6.906404000277368 ], [ 107.57671099990142, -6.906449000373163 ], [ 107.57813799955453, -6.907412000164046 ], [ 107.5785700000728, -6.907681999798005 ], [ 107.57886399974039, -6.907875999778942 ], [ 107.5790590000809, -6.908004000275411 ], [ 107.57903000016486, -6.908142000188968 ], [ 107.57913999968383, -6.908214999576228 ], [ 107.57963699997546, -6.908560999734688 ], [ 107.57988500027631, -6.908732999566382 ], [ 107.57991999962618, -6.908752999636266 ], [ 107.5803389999363, -6.909032999853897 ], [ 107.5803869996337, -6.909058999617931 ], [ 107.58052199999426, -6.909134999833556 ], [ 107.5812780004003, -6.909646999616285 ], [ 107.5818509996375, -6.910018999596757 ], [ 107.58197300011453, -6.910105999968527 ], [ 107.58216200007426, -6.910234000348185 ], [ 107.58235399968289, -6.910356000034712 ], [ 107.5827700001247, -6.910639000052494 ], [ 107.58303099993104, -6.910805999927703 ], [ 107.58319900037971, -6.91091399992286 ], [ 107.5833959996252, -6.911058999974444 ], [ 107.58423700012332, -6.911634999729836 ], [ 107.58447999961597, -6.91179900004019 ], [ 107.58477799960538, -6.911985000359881 ], [ 107.58499999958777, -6.912155000078205 ], [ 107.58553299979019, -6.912518999591216 ], [ 107.58631900007227, -6.913035000386588 ], [ 107.58697300024581, -6.913377000132746 ], [ 107.58721200038251, -6.913474000021886 ], [ 107.58724999978216, -6.913489000008206 ], [ 107.58725099998344, -6.913490999878142 ], [ 107.58856099992755, -6.913829999943626 ], [ 107.58894499996762, -6.913914000280023 ], [ 107.58908600034046, -6.91384200028169 ], [ 107.58922499978101, -6.913871000178327 ], [ 107.58970200031816, -6.913931999997586 ], [ 107.59002499961103, -6.913956999981069 ], [ 107.59056000026726, -6.913964999570729 ], [ 107.59100900034737, -6.913986000085702 ], [ 107.59159800015104, -6.914013000222447 ], [ 107.5931869997975, -6.914032999653054 ], [ 107.59340599971468, -6.914036000435848 ], [ 107.59485400000247, -6.914229000059755 ], [ 107.5953660004493, -6.914254999948207 ], [ 107.59587099961304, -6.914281000399082 ], [ 107.5962339996979, -6.914299999562737 ], [ 107.59799399996979, -6.914324000030937 ], [ 107.59810099976058, -6.91431699972514 ], [ 107.59818900017933, -6.914311999964667 ], [ 107.59821499989033, -6.91431300029148 ], [ 107.59827800009043, -6.914312999755981 ], [ 107.59837400017874, -6.914312999785724 ], [ 107.59910099955354, -6.914335999842216 ], [ 107.59913099984531, -6.914335999573635 ], [ 107.5996020004232, -6.914339000169423 ], [ 107.60140500005883, -6.914353000386492 ], [ 107.60203899970986, -6.914361999999332 ], [ 107.60233200013172, -6.914365999938787 ], [ 107.60241100015345, -6.91436999964837 ], [ 107.60276399977057, -6.914386999717499 ], [ 107.60285999979423, -6.91439199984012 ], [ 107.60367999978271, -6.914499999997974 ], [ 107.60390299999678, -6.914525000403776 ], [ 107.60391000024593, -6.914526000438657 ], [ 107.60427499977379, -6.914578000310817 ], [ 107.60454399993142, -6.914602999890686 ], [ 107.60457200003358, -6.914772999914588 ], [ 107.60455899996251, -6.914775999910494 ], [ 107.60454900016252, -6.91482500009041 ], [ 107.60451599960818, -6.915372000320432 ], [ 107.60449200004386, -6.91581000017819 ], [ 107.60446300041333, -6.916129000192601 ], [ 107.60437300025495, -6.917100000362096 ], [ 107.60436799986918, -6.917156000254956 ], [ 107.60433999990251, -6.917430999773902 ], [ 107.60430599976732, -6.917767999725018 ], [ 107.60428300018432, -6.918129999584499 ], [ 107.60428300004513, -6.918270999947696 ], [ 107.6042569995877, -6.918688000134281 ], [ 107.6041959995752, -6.919212999942947 ], [ 107.60417099990072, -6.919448999864998 ], [ 107.60416099996965, -6.919714999565911 ], [ 107.60415300043675, -6.919903000184882 ], [ 107.60411499996833, -6.920783999714248 ], [ 107.60411400020698, -6.920790999721707 ], [ 107.603654000053, -6.920751999796806 ], [ 107.60345599989736, -6.920738999984054 ], [ 107.60337599974358, -6.920721999554083 ], [ 107.60306899994983, -6.920677000348259 ], [ 107.60288600015632, -6.920673999696054 ], [ 107.60217000022503, -6.920568000303331 ], [ 107.60213799989729, -6.920563000001955 ], [ 107.60193700027921, -6.920537999586838 ], [ 107.60170300015457, -6.920507999698833 ], [ 107.60169900037384, -6.920507999894665 ], [ 107.60102099973375, -6.920421999854386 ], [ 107.60079300020141, -6.920402000307268 ], [ 107.60055699956888, -6.920387999709843 ], [ 107.60045099980377, -6.920377999912412 ], [ 107.59980200017058, -6.9202889999889 ], [ 107.59976399965265, -6.920283000302064 ], [ 107.59972600003393, -6.920276999703241 ], [ 107.59876400033245, -6.92018599967173 ], [ 107.59837199978722, -6.920116999654065 ], [ 107.59834299991748, -6.920111000364289 ], [ 107.59767600034331, -6.920039000040323 ], [ 107.597236000111, -6.919982999606114 ], [ 107.59723200028027, -6.919982000280466 ], [ 107.59704099987232, -6.919967000172015 ], [ 107.5964590000186, -6.919907999698569 ], [ 107.59603199977334, -6.919866000266535 ], [ 107.5957770001138, -6.919835000285994 ], [ 107.59575099997195, -6.91983200006639 ], [ 107.59566999973116, -6.919818000279728 ], [ 107.59528599958375, -6.919773999603278 ], [ 107.59512199995685, -6.919754000293879 ], [ 107.59494899975913, -6.919736999688141 ], [ 107.5947809995663, -6.919721000136187 ], [ 107.59439600027422, -6.919683000135028 ], [ 107.59387599957297, -6.919612999849998 ], [ 107.59387500030175, -6.919612999878086 ], [ 107.59386000030594, -6.919610999581123 ], [ 107.5934310000498, -6.919536999695753 ], [ 107.59297699974918, -6.919484999655164 ], [ 107.59294599955048, -6.919480000447165 ], [ 107.59203200038937, -6.919374999559868 ], [ 107.59159800008126, -6.919330999746201 ], [ 107.59114499990353, -6.919285000122002 ], [ 107.59083399994608, -6.919253999608722 ], [ 107.59029499984732, -6.919178999874521 ], [ 107.59014700014099, -6.919159000112023 ], [ 107.58954500037012, -6.919078000392326 ], [ 107.58918899996763, -6.919030000282762 ], [ 107.58899400014235, -6.919015999884571 ], [ 107.58832700025123, -6.918968000173581 ], [ 107.58819700041862, -6.918962999865784 ], [ 107.58753000021451, -6.918870999731567 ], [ 107.58733399975888, -6.918841999952667 ], [ 107.58720599987249, -6.918819999854857 ], [ 107.58691699979462, -6.918785000029579 ], [ 107.58651099966822, -6.918759000009326 ], [ 107.58646299979974, -6.918744000272314 ], [ 107.58585900026401, -6.918675000216961 ], [ 107.58522500021064, -6.918580000285216 ], [ 107.58500099985288, -6.918538999579274 ], [ 107.584772999923, -6.918513000217239 ], [ 107.58453100002295, -6.918478000044347 ], [ 107.58435000042951, -6.918453000312834 ], [ 107.58409600043775, -6.918437999820914 ], [ 107.58394699958393, -6.918428000115648 ], [ 107.58376200004443, -6.918396000116871 ], [ 107.58284300021099, -6.91827100012125 ], [ 107.58115499973954, -6.918067000270048 ], [ 107.58105900025221, -6.918057000272174 ], [ 107.58037099981996, -6.917968999804553 ], [ 107.58030199982504, -6.917959999979542 ], [ 107.57925400015657, -6.917840999548535 ], [ 107.57895400024501, -6.917814999842661 ], [ 107.57887500017878, -6.917798999692716 ], [ 107.57849899978368, -6.917745999628584 ], [ 107.57816300040055, -6.917702000231674 ], [ 107.57810300021976, -6.917696000380332 ], [ 107.57809800020182, -6.917694999965962 ], [ 107.57783099991963, -6.91766899958352 ], [ 107.57717199979996, -6.91758000006816 ], [ 107.57679700036407, -6.917531999626966 ], [ 107.57675700021908, -6.917534000206922 ], [ 107.57650200023782, -6.917506999584045 ], [ 107.5762699999962, -6.917470999867433 ], [ 107.57602100023227, -6.917431999594281 ], [ 107.57558400008256, -6.917384999864232 ], [ 107.57509100033938, -6.917338999581978 ], [ 107.57436299988086, -6.917222000115402 ], [ 107.57404299964247, -6.917166999584328 ], [ 107.57383900031212, -6.917094999681416 ], [ 107.57377199986789, -6.917065999792346 ], [ 107.57317399962078, -6.916550999586733 ], [ 107.57286099960898, -6.916296000277094 ], [ 107.57268900018612, -6.916153999805768 ], [ 107.57251400030995, -6.916012000092771 ], [ 107.57244799965579, -6.915957000252956 ], [ 107.57200599998144, -6.915443999954155 ], [ 107.57183699980622, -6.915176999802307 ], [ 107.57162199957646, -6.914789000149953 ], [ 107.57153900025358, -6.914639000039038 ], [ 107.57141499979615, -6.914434999770594 ], [ 107.57118799957519, -6.914074999962789 ], [ 107.57104699979803, -6.913829999642672 ], [ 107.57081399969795, -6.91338899981228 ], [ 107.57067399957731, -6.91314999988816 ], [ 107.57033200011516, -6.912644999995197 ], [ 107.57032100036133, -6.912624000229503 ], [ 107.57017399986839, -6.912368999629812 ], [ 107.57012399987273, -6.912283999984432 ], [ 107.56973600041489, -6.91163100013504 ], [ 107.56964300028574, -6.911500999935549 ], [ 107.56963800041045, -6.911495999577614 ], [ 107.56939500017607, -6.911036000059577 ], [ 107.56913999977725, -6.910634000086243 ], [ 107.56911800023026, -6.910603999898783 ], [ 107.5691110001146, -6.910594999651924 ], [ 107.5690930003492, -6.910565999979705 ], [ 107.56897200024072, -6.91036200016355 ], [ 107.56885900026209, -6.910177999629126 ], [ 107.56883200032826, -6.910130000059828 ], [ 107.56861599994799, -6.909754999827618 ], [ 107.56839699971789, -6.909404999554928 ], [ 107.56835699991592, -6.909339000316168 ], [ 107.56829700022806, -6.90923999963634 ], [ 107.5681700002182, -6.909023999695008 ], [ 107.5680790001023, -6.908880000401691 ], [ 107.56794399971595, -6.90863600037735 ], [ 107.56777300027781, -6.908368999650412 ], [ 107.56770400021639, -6.908270999833251 ], [ 107.56755799988093, -6.908038000096616 ], [ 107.56750900025395, -6.90792199981856 ], [ 107.56738099973175, -6.907715999848576 ], [ 107.56700499997656, -6.907108999734389 ], [ 107.5668599996151, -6.906851000150525 ], [ 107.56665099996768, -6.906549000038729 ], [ 107.56661899964223, -6.906502999923264 ], [ 107.56655499971738, -6.906360999951398 ], [ 107.56645800023099, -6.906203000335208 ], [ 107.56621599997405, -6.905826000383417 ], [ 107.56610300041977, -6.905625000440505 ], [ 107.56579799984114, -6.905103999990074 ], [ 107.56577700030589, -6.90506799975695 ], [ 107.56568099993149, -6.90493199983119 ], [ 107.56537499966859, -6.904428000293841 ], [ 107.56513800016405, -6.904036000385227 ], [ 107.56498300006096, -6.903765999569147 ], [ 107.56485700043912, -6.903543000203503 ], [ 107.56483199962831, -6.90350400028936 ], [ 107.56474599994147, -6.90338700005528 ], [ 107.56410799970465, -6.902269999665436 ], [ 107.56406400023096, -6.902193000324478 ], [ 107.56375899969926, -6.90169100021139 ], [ 107.5636689999084, -6.901556000087281 ], [ 107.56363099981411, -6.901499000145476 ], [ 107.56328500035298, -6.900949999780872 ], [ 107.56321500023371, -6.90084100029715 ], [ 107.56285400002197, -6.900200000299052 ], [ 107.56277099966974, -6.900076000171103 ], [ 107.56252899961819, -6.899692999912843 ], [ 107.56228499999602, -6.899304000415195 ] ] ] } }
    ]
}