{
"type": "FeatureCollection",
"crs": { "type": "name", "properties": { "name": "urn:ogc:def:crs:OGC:1.3:CRS84" } },
"features": [
        { "type": "Feature", "properties": { "FID": 4554, "OBJECTID": 4555, "ID_DESA": "3273200001", "DESA": "TAMAN SARI", "KECAMATAN": "BANDUNG WETAN", "KABUPATEN": "K_BANDUNG", "PROVINSI": "JAWA BARAT", "ID_KEC": "3273200", "ID_KAB": "3273", "ID_PROV": "32", "Shape_Leng": 4608.369956, "Shape_Area": 1012959.25502, "Luas_Km_": 1.012959 }, "geometry": { "type": "Polygon", "coordinates": [ [ [ 107.60226199996123, -6.900292000259935 ], [ 107.60283400013553, -6.900317000434327 ], [ 107.60306400020281, -6.900329000302892 ], [ 107.60341799970058, -6.9003829997529 ], [ 107.60377200016612, -6.900417000307131 ], [ 107.60415800034794, -6.900456000340801 ], [ 107.6041120000872, -6.899859000330376 ], [ 107.60408600004639, -6.899394000157864 ], [ 107.60400400029019, -6.898166999566673 ], [ 107.6039760003529, -6.89782599969104 ], [ 107.60393300019189, -6.897362000384414 ], [ 107.60390899962736, -6.896240999895397 ], [ 107.60391799983437, -6.895677000263854 ], [ 107.60392600014963, -6.895637000078058 ], [ 107.60395199963199, -6.895590999694025 ], [ 107.60427600002689, -6.895509000444366 ], [ 107.60511600009707, -6.895327999632151 ], [ 107.60547800022734, -6.895258999634961 ], [ 107.6061130003398, -6.895158999668752 ], [ 107.60611900025054, -6.895161999672368 ], [ 107.606313999961, -6.895288000153676 ], [ 107.60643699987831, -6.895399000397559 ], [ 107.60649399966377, -6.895514000230908 ], [ 107.60655500029625, -6.895637000207951 ], [ 107.60658300021193, -6.895643999932824 ], [ 107.60666300021266, -6.895639999706408 ], [ 107.60685599990768, -6.895600999662762 ], [ 107.60738300005141, -6.895805000076181 ], [ 107.60762199987923, -6.895892000334669 ], [ 107.60821099973458, -6.896274000124306 ], [ 107.60898300022284, -6.89688199989495 ], [ 107.60910199991156, -6.896871000163523 ], [ 107.60913300008032, -6.896928999838946 ], [ 107.60925800002131, -6.897285000078958 ], [ 107.60925000018986, -6.897555999748088 ], [ 107.60922300029188, -6.897709000051029 ], [ 107.60927500012707, -6.898027999625346 ], [ 107.60930900002235, -6.898106000333079 ], [ 107.60940599997458, -6.898163000019279 ], [ 107.60954200027275, -6.898207000111054 ], [ 107.60957299993945, -6.898216999671132 ], [ 107.609723999922, -6.898307000054484 ], [ 107.60987500042478, -6.898406000144058 ], [ 107.61030900034466, -6.898541999949827 ], [ 107.61066900002817, -6.898649999753109 ], [ 107.61167500022331, -6.898917999970981 ], [ 107.61193700026959, -6.898930999798072 ], [ 107.61220899970847, -6.898945000211278 ], [ 107.61256000033644, -6.898944999874775 ], [ 107.61274800029651, -6.898952999653091 ], [ 107.61275299998297, -6.898953000279534 ], [ 107.61291600012787, -6.898953000192727 ], [ 107.61294299967504, -6.898952999582352 ], [ 107.61347199973609, -6.89899100004556 ], [ 107.61452100017665, -6.899052000371532 ], [ 107.61491599967135, -6.899047999577848 ], [ 107.61509799984309, -6.899046000451023 ], [ 107.61542400015972, -6.899041000340759 ], [ 107.61565799974878, -6.899063999887451 ], [ 107.6158420000574, -6.899117000044478 ], [ 107.61600300043975, -6.899169999752226 ], [ 107.61618099958606, -6.899228999653218 ], [ 107.6162120001496, -6.899238000134007 ], [ 107.61631499974668, -6.899310999975041 ], [ 107.61646600011834, -6.899151999904246 ], [ 107.61650999991539, -6.899141000237076 ], [ 107.61715599993126, -6.899207999697363 ], [ 107.61788699971241, -6.899354000139366 ], [ 107.61801900013002, -6.899364000415044 ], [ 107.61818500006568, -6.899350999777713 ], [ 107.61842999989395, -6.899287000134274 ], [ 107.61868299959349, -6.899297999587291 ], [ 107.6187159996517, -6.899296999664879 ], [ 107.61892500024874, -6.89928999985642 ], [ 107.61924799962782, -6.899313000410295 ], [ 107.61951600017336, -6.899302000168583 ], [ 107.62005000030871, -6.89928500033529 ], [ 107.62030499994682, -6.899283999764644 ], [ 107.62105499963236, -6.899257999803123 ], [ 107.62234599986749, -6.89923099987648 ], [ 107.62251600032732, -6.89922800024765 ], [ 107.6237680003419, -6.899225999621007 ], [ 107.62431900012709, -6.899239000188597 ], [ 107.62445200009252, -6.899249000368774 ], [ 107.62448199999425, -6.899251999949595 ], [ 107.62475399992614, -6.89925400033895 ], [ 107.62499899966885, -6.899257000436295 ], [ 107.6262539996649, -6.899277999560656 ], [ 107.62655399968229, -6.899352999619896 ], [ 107.62799499985955, -6.899734000329585 ], [ 107.6286530002549, -6.899856000316027 ], [ 107.62886200039267, -6.899870000093795 ], [ 107.62947200033695, -6.899842000396375 ], [ 107.62948299959946, -6.899840999933983 ], [ 107.62972799985, -6.89974200035866 ], [ 107.62985799975989, -6.899692000117446 ], [ 107.63005300036036, -6.899615999794473 ], [ 107.63021000001366, -6.899563000415851 ], [ 107.63026900027087, -6.899538999813483 ], [ 107.63031600020054, -6.899533999956142 ], [ 107.6304719999096, -6.89943700008766 ], [ 107.6306830001557, -6.899305999936147 ], [ 107.63080299995677, -6.89921300031034 ], [ 107.63095700019082, -6.899088999845286 ], [ 107.63118399993121, -6.89892100010343 ], [ 107.63127199988551, -6.898855999985101 ], [ 107.63169500031054, -6.898549999604985 ], [ 107.63173800030434, -6.898523999700582 ], [ 107.63176499973233, -6.898527000014204 ], [ 107.63176300024669, -6.898515999857908 ], [ 107.63186300011249, -6.898476000308909 ], [ 107.63227899982277, -6.898349999993876 ], [ 107.6327419998817, -6.898211000096116 ], [ 107.63317800026222, -6.898088000102855 ], [ 107.63364299971988, -6.897957999842 ], [ 107.63413700024978, -6.897806000188461 ], [ 107.63414399991689, -6.897866000190791 ], [ 107.63403000001915, -6.898289999862052 ], [ 107.63398700028382, -6.898839000179974 ], [ 107.63399000038972, -6.899348999992594 ], [ 107.63403499957926, -6.899600000397782 ], [ 107.63407200006201, -6.89980999955358 ], [ 107.63417700016684, -6.900198000378165 ], [ 107.63425899973186, -6.900395999628854 ], [ 107.63432900013956, -6.900519000336368 ], [ 107.63435599968473, -6.90056499957351 ], [ 107.63449900007754, -6.90082800034537 ], [ 107.63497900016404, -6.901804999715567 ], [ 107.63504299985172, -6.90195599995686 ], [ 107.63504500039038, -6.901958999911789 ], [ 107.63496900004776, -6.901996999780659 ], [ 107.63465700001818, -6.902153999987442 ], [ 107.63424699996489, -6.902361000111941 ], [ 107.63383400024732, -6.902570000134163 ], [ 107.63360200011931, -6.902686999928726 ], [ 107.63343099999585, -6.902768000390319 ], [ 107.63334200013063, -6.902810000144817 ], [ 107.6332179997403, -6.902874999960341 ], [ 107.6332019997335, -6.902882999941766 ], [ 107.63304699997016, -6.90296100031736 ], [ 107.63296900042798, -6.903004000170047 ], [ 107.63293799997595, -6.903015000036183 ], [ 107.63291399956034, -6.903019000293446 ], [ 107.63279700015347, -6.903096000017885 ], [ 107.63256400026366, -6.903335000032076 ], [ 107.63189800003714, -6.90408500033823 ], [ 107.6316900001946, -6.904331999731666 ], [ 107.63118000004184, -6.90503800012748 ], [ 107.63100099959117, -6.90526200008305 ], [ 107.6307800000376, -6.905553000317468 ], [ 107.63062700019938, -6.905879999585822 ], [ 107.63059899959752, -6.905924000147889 ], [ 107.63050900008507, -6.906068000417185 ], [ 107.63045599968243, -6.906151999800247 ], [ 107.63024799972949, -6.906377000260346 ], [ 107.62995199978178, -6.906770000407354 ], [ 107.63012200016925, -6.906998000019692 ], [ 107.63038899978554, -6.907357000084109 ], [ 107.63051699965405, -6.90755499999283 ], [ 107.63063200029669, -6.90773100042435 ], [ 107.63075099964418, -6.907914999668216 ], [ 107.6307799997584, -6.907960000312258 ], [ 107.63100800027726, -6.908318999950884 ], [ 107.63122399989189, -6.908654000072883 ], [ 107.63170800012225, -6.909406000261539 ], [ 107.63193099971167, -6.909747000205704 ], [ 107.63193900031541, -6.909760000423028 ], [ 107.63206100011776, -6.909966999666 ], [ 107.63219300034024, -6.910223000017406 ], [ 107.6322190003217, -6.910259000262641 ], [ 107.63257299983121, -6.910751999605314 ], [ 107.63285100012654, -6.91114499964394 ], [ 107.63325299978908, -6.911763999978604 ], [ 107.63343299979142, -6.912039000203906 ], [ 107.63385200043298, -6.912686999814752 ], [ 107.63408300017285, -6.913036000436757 ], [ 107.63410200024794, -6.913069999627532 ], [ 107.63411500031626, -6.913094999884024 ], [ 107.63432099959799, -6.913441000164551 ], [ 107.63423299998793, -6.913497000256288 ], [ 107.63383800015824, -6.913682000434098 ], [ 107.63352300003061, -6.913869999812506 ], [ 107.63337400040069, -6.913951000182044 ], [ 107.63326600014466, -6.914011000211508 ], [ 107.63275900039713, -6.914289999818631 ], [ 107.63268499964761, -6.91433100006476 ], [ 107.63246599973789, -6.914448000075227 ], [ 107.63225200003097, -6.914562000208216 ], [ 107.63133999955699, -6.915042999815294 ], [ 107.63087599999758, -6.91528699997106 ], [ 107.63076500014749, -6.915345000160497 ], [ 107.63056099981371, -6.915450000042292 ], [ 107.63011499989591, -6.915676999836011 ], [ 107.62998200022382, -6.915742000235774 ], [ 107.62997399956083, -6.915712999655954 ], [ 107.62983700000544, -6.915384999599948 ], [ 107.62960399960849, -6.914917999893305 ], [ 107.62960300009422, -6.914906999637332 ], [ 107.62960200034695, -6.914876999751649 ], [ 107.62943999972786, -6.914421000023478 ], [ 107.62921200027581, -6.913697999826772 ], [ 107.62887800003585, -6.913128000211263 ], [ 107.62859000002858, -6.912666000212734 ], [ 107.62830299966582, -6.912271999955671 ], [ 107.6278710000944, -6.911802999896135 ], [ 107.62764099990413, -6.911610999654969 ], [ 107.62761200017556, -6.911588999908272 ], [ 107.62737599968989, -6.911400000227334 ], [ 107.62709400005636, -6.911188000013555 ], [ 107.62699700017708, -6.911136000323237 ], [ 107.62697700007759, -6.911116000386433 ], [ 107.62676400040421, -6.910899999959846 ], [ 107.62657399994472, -6.910680000269726 ], [ 107.6264370002728, -6.910562000039223 ], [ 107.62619399972432, -6.910334999782705 ], [ 107.62599899971319, -6.910140000202137 ], [ 107.62597800012172, -6.910154000007721 ], [ 107.62591900005668, -6.910195999963261 ], [ 107.6258579999098, -6.910239999924763 ], [ 107.62566799958533, -6.910307999706388 ], [ 107.62530299985357, -6.910216000452171 ], [ 107.6249990003967, -6.91014700013501 ], [ 107.62370899960221, -6.909853999569211 ], [ 107.6235459996049, -6.909812000218712 ], [ 107.62179299960574, -6.909406999797519 ], [ 107.6214050003698, -6.909319999845118 ], [ 107.62117599996958, -6.909310999919279 ], [ 107.62107499957156, -6.909346999710226 ], [ 107.62105599976307, -6.909347000352167 ], [ 107.62065399993553, -6.909297000025477 ], [ 107.62032600011121, -6.909216000079419 ], [ 107.62005400038234, -6.909133000122369 ], [ 107.61972000007735, -6.909043999913071 ], [ 107.61900800026228, -6.908846000052437 ], [ 107.61893300008001, -6.908821999638596 ], [ 107.61876899986095, -6.908799000038726 ], [ 107.61859500002707, -6.908774999858269 ], [ 107.61852900032895, -6.9087759997995 ], [ 107.61830599961033, -6.908824000038178 ], [ 107.61820399998426, -6.908853000355428 ], [ 107.6178029997497, -6.909006999657133 ], [ 107.61744100008988, -6.909175000129892 ], [ 107.61738900040504, -6.909199999669235 ], [ 107.61694799961521, -6.909356999803524 ], [ 107.61610000009313, -6.90964100003854 ], [ 107.61573900011668, -6.909762000128147 ], [ 107.61563300020815, -6.909801999883594 ], [ 107.61554100040559, -6.909842000446819 ], [ 107.61551799984316, -6.909852999831725 ], [ 107.61546900013326, -6.909862999756367 ], [ 107.61515799955947, -6.909937000200105 ], [ 107.6149610000444, -6.909983999718572 ], [ 107.61431799998931, -6.910211000062313 ], [ 107.61389099964693, -6.91034899996363 ], [ 107.61383399987206, -6.91037600031224 ], [ 107.61375100042645, -6.910370000003969 ], [ 107.61362599961987, -6.910312999690968 ], [ 107.61259599994779, -6.909848000435828 ], [ 107.61248200041423, -6.909811000174878 ], [ 107.61236700034891, -6.909794999681875 ], [ 107.61161500025489, -6.909796000166107 ], [ 107.61062399985023, -6.90979200017489 ], [ 107.61059899991623, -6.909791999860257 ], [ 107.61058199966686, -6.906994999799648 ], [ 107.61043899995113, -6.906962999570278 ], [ 107.61015400030846, -6.90692299980884 ], [ 107.60991899957384, -6.906887000381231 ], [ 107.60990699968271, -6.906885999772161 ], [ 107.6097160004061, -6.906864999796682 ], [ 107.60930799998714, -6.906806000038785 ], [ 107.60905299996502, -6.90675199985479 ], [ 107.60861800040198, -6.906694000364919 ], [ 107.60833199992813, -6.906627000090495 ], [ 107.6077619995929, -6.906497999817663 ], [ 107.60774499967303, -6.906542000166553 ], [ 107.60768599973889, -6.906856000015875 ], [ 107.6076159996496, -6.907358999687955 ], [ 107.60753200004503, -6.907741999878502 ], [ 107.60750299991903, -6.90771500019179 ], [ 107.60728199968985, -6.90756600028994 ], [ 107.60719099996915, -6.907506000264233 ], [ 107.6067000004104, -6.907277000441353 ], [ 107.60643399996685, -6.907202000451401 ], [ 107.60618000006112, -6.907174000369941 ], [ 107.60575599986134, -6.90718200022722 ], [ 107.60570599992619, -6.907178999650293 ], [ 107.6054720000334, -6.907168999643051 ], [ 107.60524700001622, -6.90716799981211 ], [ 107.60447900002356, -6.907161999995425 ], [ 107.60441600003435, -6.906726999748773 ], [ 107.60441400029114, -6.905960000402828 ], [ 107.6044140000642, -6.905917000286828 ], [ 107.60441199962619, -6.905817999706882 ], [ 107.60440399958395, -6.905437000375931 ], [ 107.60437599962158, -6.904352000197451 ], [ 107.60437599979134, -6.904336000424778 ], [ 107.60437599995636, -6.904319999748441 ], [ 107.60343800033672, -6.904343000324383 ], [ 107.60309100014329, -6.904344000134348 ], [ 107.60309299987378, -6.903954000146377 ], [ 107.60296599968059, -6.903461000146433 ], [ 107.60285300040854, -6.90310799967684 ], [ 107.60272199963752, -6.902879999708868 ], [ 107.60258599986136, -6.902733000098099 ], [ 107.60242399993584, -6.902621000311616 ], [ 107.6023859999237, -6.902567000024502 ], [ 107.60238199982609, -6.902532999811896 ], [ 107.60236100018997, -6.901616000243657 ], [ 107.60235299988823, -6.90140599967806 ], [ 107.60233599959615, -6.901224999685361 ], [ 107.60227599980585, -6.90045299996323 ], [ 107.60226199996123, -6.900292000259935 ] ] ] } }
    ]
}