{
"type": "FeatureCollection",
"crs": { "type": "name", "properties": { "name": "urn:ogc:def:crs:OGC:1.3:CRS84" } },
"features": [
    { "type": "Feature", "properties": { "FID": 4486, "OBJECTID": 4487, "ID_DESA": "3273030001", "DESA": "KOPO", "KECAMATAN": "BOJONGLOA KALER", "KABUPATEN": "K_BANDUNG", "PROVINSI": "JAWA BARAT", "ID_KEC": "3273030", "ID_KAB": "3273", "ID_PROV": "32", "Shape_Leng": 5366.199898, "Shape_Area": 1297400.38555, "Luas_Km_": 1.2974 }, "geometry": { "type": "Polygon", "coordinates": [ [ [ 107.58426399998646, -6.944206000192144 ], [ 107.58428700038746, -6.944036000058738 ], [ 107.58436800028882, -6.943432000125027 ], [ 107.58441800014673, -6.943061999673212 ], [ 107.58431299977426, -6.9420009999814 ], [ 107.58427999961609, -6.941897999980209 ], [ 107.58386300018287, -6.941526999713719 ], [ 107.58369800017115, -6.941380999796021 ], [ 107.58352100002504, -6.941258000176776 ], [ 107.58332399999421, -6.941049000352279 ], [ 107.58318000030415, -6.940741999941798 ], [ 107.58295500038017, -6.940088000339556 ], [ 107.58284500017783, -6.939527999674517 ], [ 107.58284399978471, -6.939522000032445 ], [ 107.5827939997519, -6.939148000204174 ], [ 107.58280099978349, -6.938796999993794 ], [ 107.58312800000459, -6.937018000026094 ], [ 107.58320400013717, -6.936802000329398 ], [ 107.58346400010005, -6.936491000353239 ], [ 107.58359100022179, -6.936336000172145 ], [ 107.58369600036016, -6.936194999718544 ], [ 107.58382200031383, -6.936046999615039 ], [ 107.58420699996503, -6.936262999961697 ], [ 107.58423800023549, -6.936257000441725 ], [ 107.58444100022383, -6.935879999959955 ], [ 107.58446999963799, -6.935828999864363 ], [ 107.58457100006372, -6.934463999874144 ], [ 107.58460300018612, -6.934188999724533 ], [ 107.58461200023856, -6.934154000131373 ], [ 107.5846139996714, -6.934118000312297 ], [ 107.58461799955263, -6.934050000442931 ], [ 107.58464999996585, -6.933916000022607 ], [ 107.58471200013675, -6.933541000321369 ], [ 107.58479800028861, -6.933011999758371 ], [ 107.58506899962229, -6.931241000355806 ], [ 107.58516300020383, -6.930661000441027 ], [ 107.58520800018862, -6.929954000281893 ], [ 107.58526000031763, -6.928788000311699 ], [ 107.58535300037018, -6.927734000422326 ], [ 107.58544799963913, -6.927068999710962 ], [ 107.58548600019684, -6.926814999841344 ], [ 107.58549400008937, -6.926782000204651 ], [ 107.58551100015931, -6.926719999779219 ], [ 107.58552599955841, -6.926301000285079 ], [ 107.58556800014419, -6.925896000372817 ], [ 107.5855740001581, -6.925768000313237 ], [ 107.58566900035316, -6.924326999685904 ], [ 107.58567799986135, -6.924185999871946 ], [ 107.58570400040561, -6.923820000360277 ], [ 107.58570600022472, -6.923545000172863 ], [ 107.5855879996039, -6.923382000238599 ], [ 107.58547599969272, -6.923064000350485 ], [ 107.58541900039582, -6.922743999576581 ], [ 107.5853690000795, -6.9221630003376 ], [ 107.5853719999249, -6.921989999696994 ], [ 107.58537999993001, -6.921960000365051 ], [ 107.58540699958694, -6.921732000203201 ], [ 107.58544800028318, -6.921283000148083 ], [ 107.58545000014924, -6.920593000357876 ], [ 107.58554000015364, -6.92043400033368 ], [ 107.58573100006808, -6.920249999741238 ], [ 107.58598300014575, -6.920112999552544 ], [ 107.5862810002439, -6.920152999692627 ], [ 107.5864959997042, -6.918897999949409 ], [ 107.58651099966822, -6.918759000009326 ], [ 107.58691699979462, -6.918785000029579 ], [ 107.58720599987249, -6.918819999854857 ], [ 107.58733399975888, -6.918841999952667 ], [ 107.58753000021451, -6.918870999731567 ], [ 107.58819700041862, -6.918962999865784 ], [ 107.58832700025123, -6.918968000173581 ], [ 107.58899400014235, -6.919015999884571 ], [ 107.58918899996763, -6.919030000282762 ], [ 107.58954500037012, -6.919078000392326 ], [ 107.59014700014099, -6.919159000112023 ], [ 107.59029499984732, -6.919178999874521 ], [ 107.59083399994608, -6.919253999608722 ], [ 107.59080999999345, -6.919709999625248 ], [ 107.59084100039685, -6.920176999808016 ], [ 107.59086799979929, -6.920656999731633 ], [ 107.59087300040514, -6.920677000186363 ], [ 107.59108199966855, -6.920692999947539 ], [ 107.59122499975682, -6.920711000387761 ], [ 107.59119300016651, -6.921485000055609 ], [ 107.59121300021242, -6.921741999601863 ], [ 107.59119300006846, -6.922469999939853 ], [ 107.59138799977255, -6.922499000228463 ], [ 107.59165499972779, -6.922519000208706 ], [ 107.59225000007336, -6.922565000149075 ], [ 107.59241500038263, -6.922588999855324 ], [ 107.59264200031512, -6.922613999731495 ], [ 107.59267999966565, -6.922704999634743 ], [ 107.59275699976823, -6.922718000426121 ], [ 107.59288600026596, -6.922728999645639 ], [ 107.59293900002677, -6.922754000432318 ], [ 107.59296499988015, -6.922818000104251 ], [ 107.59271700033, -6.923238000014239 ], [ 107.59267600022997, -6.923319000360659 ], [ 107.5927179999253, -6.923420999869863 ], [ 107.59284000035233, -6.923681000427602 ], [ 107.59282400028171, -6.923881999699888 ], [ 107.5928560000814, -6.923935999784359 ], [ 107.59311600020477, -6.9246229999635 ], [ 107.593125000399, -6.924725999971937 ], [ 107.59310499961981, -6.924827000205581 ], [ 107.59409700026035, -6.925265000440536 ], [ 107.59419000000621, -6.925318999896113 ], [ 107.59427899957173, -6.925473999827307 ], [ 107.59439800017542, -6.925647000144758 ], [ 107.59442100016084, -6.925673000328153 ], [ 107.59455699980585, -6.925809000029222 ], [ 107.59460799980531, -6.925859999785837 ], [ 107.59478099983845, -6.926093000326699 ], [ 107.59473599960413, -6.926349000152797 ], [ 107.59467899954797, -6.926682999987466 ], [ 107.59467799974981, -6.926754999937545 ], [ 107.59473500035521, -6.92681100043303 ], [ 107.59488599974026, -6.926802000005908 ], [ 107.59501700008938, -6.926798999942656 ], [ 107.59518500040741, -6.926882000045005 ], [ 107.59525900003193, -6.926963999898574 ], [ 107.59529699983241, -6.92716200004741 ], [ 107.5952990001874, -6.927221999709968 ], [ 107.59530400041673, -6.927366999642825 ], [ 107.59527200010622, -6.927496000323195 ], [ 107.59506199991155, -6.928045999743449 ], [ 107.59504900011439, -6.928086000414797 ], [ 107.59503600038133, -6.928227999949272 ], [ 107.59499899981797, -6.928374000222235 ], [ 107.59494200034648, -6.928489999630692 ], [ 107.59495500005822, -6.928568000410999 ], [ 107.59510899962898, -6.928677999605608 ], [ 107.59525900016631, -6.92872600017421 ], [ 107.59542700001509, -6.928703000446598 ], [ 107.59560300041913, -6.928678999933585 ], [ 107.59576399997309, -6.928737999596849 ], [ 107.59585700037799, -6.928825000318732 ], [ 107.59593700009781, -6.928969000132948 ], [ 107.59598699995588, -6.929122999676563 ], [ 107.59606999963506, -6.929307999794372 ], [ 107.59612399971444, -6.929448000027028 ], [ 107.59619100008355, -6.929484999601621 ], [ 107.59629099967856, -6.929540999611221 ], [ 107.59648899980981, -6.929587000332899 ], [ 107.5965819997667, -6.929603999968733 ], [ 107.5966330000615, -6.929665000421084 ], [ 107.59685599990046, -6.929913999569666 ], [ 107.59685500011538, -6.930281000326775 ], [ 107.59694200000713, -6.93058400025994 ], [ 107.59688499988657, -6.930907999684886 ], [ 107.59685000035469, -6.931123000287067 ], [ 107.59690399968888, -6.931183999594261 ], [ 107.59691199987368, -6.931191999590856 ], [ 107.59683099986111, -6.931416000434324 ], [ 107.59680000003431, -6.931503999728656 ], [ 107.59676399993278, -6.931606000150349 ], [ 107.59658799954877, -6.932210999938328 ], [ 107.59651700017756, -6.932482000439929 ], [ 107.5964869995782, -6.932639999642424 ], [ 107.59599299979189, -6.934374000191293 ], [ 107.59597599957198, -6.934437000059969 ], [ 107.59595899963071, -6.934487999807105 ], [ 107.5957879996509, -6.935097000407207 ], [ 107.59549399966828, -6.936184000372366 ], [ 107.59525700035611, -6.936579000183265 ], [ 107.59514200041521, -6.936733000258182 ], [ 107.59496400009844, -6.937015999987779 ], [ 107.59463500025603, -6.937566000116896 ], [ 107.59433100014924, -6.938124000400583 ], [ 107.59409100014808, -6.938530999691508 ], [ 107.59375300003499, -6.939092999600552 ], [ 107.59729000002307, -6.939810999802304 ], [ 107.59770499962315, -6.939804999837435 ], [ 107.59802200011939, -6.939805999607636 ], [ 107.59811699988774, -6.939808000430111 ], [ 107.59787600026434, -6.940953000211804 ], [ 107.59786600035795, -6.941005000012483 ], [ 107.59747900038735, -6.940904999667914 ], [ 107.59730399956587, -6.940879000347429 ], [ 107.59709000001008, -6.940834999780467 ], [ 107.59701900015379, -6.94118999960229 ], [ 107.5970080003638, -6.941234000005635 ], [ 107.59698399999631, -6.941224999673386 ], [ 107.59654499991066, -6.941075000209919 ], [ 107.59652300011001, -6.94116100025489 ], [ 107.59651200041466, -6.941223000380661 ], [ 107.59647499977399, -6.941412999821051 ], [ 107.59622900036818, -6.941855999856469 ], [ 107.59611299962808, -6.942112999669892 ], [ 107.59604499967095, -6.942294999551368 ], [ 107.59601100042468, -6.942453000070731 ], [ 107.59592399975381, -6.942881999739347 ], [ 107.5958980004106, -6.943008000129763 ], [ 107.59572299991689, -6.943870000286974 ], [ 107.59567799971204, -6.944116000232388 ], [ 107.5956720003347, -6.944164999615882 ], [ 107.59563300000981, -6.944493000215548 ], [ 107.59559899959996, -6.944631999789435 ], [ 107.59557999983552, -6.944708999873835 ], [ 107.59550800024778, -6.944992999764991 ], [ 107.59550500009668, -6.945001999795955 ], [ 107.59538900035933, -6.945347000417901 ], [ 107.59536999987328, -6.945458000111649 ], [ 107.59533199969772, -6.945738999725638 ], [ 107.5953169999035, -6.945846000365123 ], [ 107.59530100019286, -6.946215999752674 ], [ 107.59521899971874, -6.94690200034508 ], [ 107.59517800039914, -6.947281999606282 ], [ 107.59487199955923, -6.947221999810696 ], [ 107.59437899955856, -6.947118999661926 ], [ 107.59385100035746, -6.947029999881372 ], [ 107.5937360001368, -6.947006000289878 ], [ 107.59354900031558, -6.946967000436608 ], [ 107.5930999999136, -6.946832999764585 ], [ 107.59295600013125, -6.946792000256769 ], [ 107.59214100039246, -6.946561999593639 ], [ 107.59193999994575, -6.946503000028806 ], [ 107.59137099985058, -6.946280999627726 ], [ 107.59119500002926, -6.946206000374388 ], [ 107.59084699961434, -6.946074000319173 ], [ 107.59054400012801, -6.945964999642685 ], [ 107.58968099984148, -6.945591000177968 ], [ 107.58960999990813, -6.945676000342655 ], [ 107.5894939998838, -6.945829999615723 ], [ 107.58878099977296, -6.946929999817778 ], [ 107.58841199986639, -6.946832000385214 ], [ 107.58807399982878, -6.9467270002162 ], [ 107.58784300025756, -6.94668999956004 ], [ 107.58760500032193, -6.946661999880241 ], [ 107.5873739998423, -6.946645999994669 ], [ 107.58734299965673, -6.94664499991247 ], [ 107.58631499985783, -6.946406000034432 ], [ 107.58608699973009, -6.94636000018197 ], [ 107.58587900031702, -6.946302999669119 ], [ 107.58570399998966, -6.946252000251437 ], [ 107.58488899981043, -6.946034000121472 ], [ 107.58431499965108, -6.945868999844519 ], [ 107.58411099985206, -6.945794999681157 ], [ 107.5841850002617, -6.945336999721701 ], [ 107.5841879996957, -6.945249999576382 ], [ 107.58420999967827, -6.944819999691989 ], [ 107.58423000035842, -6.944524000433365 ], [ 107.58423600008359, -6.944423999575389 ], [ 107.58426399998646, -6.944206000192144 ] ] ] } }
     ]
}