{
"type": "FeatureCollection",
"crs": { "type": "name", "properties": { "name": "urn:ogc:def:crs:OGC:1.3:CRS84" } },
"features": [
        { "type": "Feature", "properties": { "FID": 375, "OBJECTID": 376, "ID_DESA": "3273090002", "DESA": "MARGASARI", "KECAMATAN": "BUAHBATU", "KABUPATEN": "K_BANDUNG", "PROVINSI": "JAWA BARAT", "ID_KEC": "3273090", "ID_KAB": "3273", "ID_PROV": "32", "Shape_Leng": 10887.707754, "Shape_Area": 3523654.3419, "Luas_Km_": 3.523654 }, "geometry": { "type": "Polygon", "coordinates": [ [ [ 107.67643999976221, -6.968117999844465 ], [ 107.67593499991175, -6.96807300031187 ], [ 107.67494399969794, -6.967961999878185 ], [ 107.67417699994435, -6.96787899955387 ], [ 107.67316700031451, -6.967797000008242 ], [ 107.67265799973119, -6.967743999582969 ], [ 107.67150699985598, -6.967625000360371 ], [ 107.6713949996155, -6.967611999731107 ], [ 107.67137699984968, -6.967598999695913 ], [ 107.67122599958424, -6.967590999830243 ], [ 107.67106899957614, -6.967582000081192 ], [ 107.67101100008684, -6.967580000290604 ], [ 107.67097099997555, -6.967577999919023 ], [ 107.66956299986072, -6.967553000355535 ], [ 107.66929599990341, -6.967547000049871 ], [ 107.66919699976548, -6.967545999822857 ], [ 107.66902700027811, -6.967559999956142 ], [ 107.66858699988769, -6.967586999932509 ], [ 107.66799799967684, -6.967624000447708 ], [ 107.66673499954861, -6.967619999903218 ], [ 107.66648000004855, -6.967610999742158 ], [ 107.66579199956094, -6.967584999743382 ], [ 107.6648100002112, -6.967472999658085 ], [ 107.66457200041806, -6.967443000370321 ], [ 107.66427399972994, -6.967412000185136 ], [ 107.66405499963309, -6.967369999704495 ], [ 107.66390199968205, -6.967339999575555 ], [ 107.66372899982993, -6.96730599969472 ], [ 107.6636380000257, -6.967292000345176 ], [ 107.663081000056, -6.967168999557578 ], [ 107.66217300013339, -6.966939999847528 ], [ 107.6617140000765, -6.966786000183584 ], [ 107.66160099958934, -6.96675800038259 ], [ 107.66051900031781, -6.96648699984357 ], [ 107.66041700030148, -6.966457999770061 ], [ 107.66025400012191, -6.966403000106761 ], [ 107.66022500029925, -6.966396000210303 ], [ 107.66013799987549, -6.966379000047559 ], [ 107.6590749997019, -6.966171000112369 ], [ 107.65731299985596, -6.965869000294566 ], [ 107.65728200029368, -6.965861000254117 ], [ 107.65574199967311, -6.965586000372505 ], [ 107.65550200027242, -6.965543000047314 ], [ 107.65455500037395, -6.965425999952322 ], [ 107.65283900010351, -6.965163000006945 ], [ 107.65108099992641, -6.96485800018049 ], [ 107.65078599959909, -6.964818999855364 ], [ 107.65057499959664, -6.964786000111166 ], [ 107.65029199983093, -6.964750000029593 ], [ 107.65000500027993, -6.964719999854236 ], [ 107.65001299960515, -6.964649999636092 ], [ 107.65010299972666, -6.964216000161652 ], [ 107.65017999955343, -6.963985999970326 ], [ 107.65026199997335, -6.96396699988515 ], [ 107.65038900024642, -6.963932000376552 ], [ 107.65043599994927, -6.963855999886962 ], [ 107.65044899970397, -6.963682999566835 ], [ 107.65045499988452, -6.963601000139058 ], [ 107.65046000000925, -6.963443999568089 ], [ 107.65047000017216, -6.963114999607506 ], [ 107.65043199993644, -6.962954000228584 ], [ 107.65046099965127, -6.96277099983895 ], [ 107.6504629996253, -6.962758999869453 ], [ 107.65049299956402, -6.962595000395051 ], [ 107.65049999984961, -6.962554999831744 ], [ 107.65050199965195, -6.962323000299242 ], [ 107.65056499958044, -6.962086999846632 ], [ 107.65061599981793, -6.961881000169075 ], [ 107.65059200036495, -6.96165899985114 ], [ 107.65038999973764, -6.96122599972181 ], [ 107.65024800042121, -6.961064000053342 ], [ 107.65015400035992, -6.960956999550256 ], [ 107.65008799957798, -6.960871000195355 ], [ 107.65003100007128, -6.960704000262619 ], [ 107.65006199975286, -6.960560000255846 ], [ 107.65005599979065, -6.960489999901842 ], [ 107.65002699986152, -6.960360000310303 ], [ 107.65007800009204, -6.960297000075038 ], [ 107.65013600027032, -6.960215999607493 ], [ 107.65008499985687, -6.960162000324383 ], [ 107.649935000135, -6.960106000325923 ], [ 107.64960299955199, -6.960025000354837 ], [ 107.64949500014124, -6.960038000017447 ], [ 107.64936800016584, -6.960045999573713 ], [ 107.64920399957232, -6.959981999986113 ], [ 107.64903599982478, -6.959981000139986 ], [ 107.64881599971335, -6.959921999551052 ], [ 107.64876199972629, -6.95987800042343 ], [ 107.64875899974965, -6.959808000341293 ], [ 107.64775999969096, -6.959818999936978 ], [ 107.64728600005374, -6.959774999926172 ], [ 107.64616100011079, -6.959629000066551 ], [ 107.64540400021568, -6.959528000263406 ], [ 107.64329699991251, -6.959082999895316 ], [ 107.6433090002097, -6.959043000196969 ], [ 107.64326800039686, -6.958923000435949 ], [ 107.64321299960815, -6.958736000413393 ], [ 107.64318400011864, -6.958639000320741 ], [ 107.64317699972186, -6.958613999996056 ], [ 107.64310400019309, -6.958350999893878 ], [ 107.64302499998053, -6.958074999824444 ], [ 107.64295999996716, -6.957776000197804 ], [ 107.6429320003144, -6.957532000059509 ], [ 107.64283300005313, -6.957470999640089 ], [ 107.6426369996102, -6.957416000103629 ], [ 107.64241800022856, -6.957412999827011 ], [ 107.64217699972103, -6.957389000229085 ], [ 107.64194600042244, -6.957299999607537 ], [ 107.64179000005549, -6.957193000225338 ], [ 107.64164700003629, -6.957124999659604 ], [ 107.64134100001867, -6.956993000275078 ], [ 107.64121899982366, -6.956803000362888 ], [ 107.64109300016091, -6.95657700014539 ], [ 107.64102400044143, -6.956538000264466 ], [ 107.64091700037433, -6.956513999979633 ], [ 107.64082399998161, -6.956475000296502 ], [ 107.64074800024876, -6.956389999797173 ], [ 107.64063100025504, -6.956191999589016 ], [ 107.64051699984243, -6.955947999856424 ], [ 107.64049899966517, -6.95577699960316 ], [ 107.64055599992416, -6.955526000007525 ], [ 107.64062799959153, -6.955224000023451 ], [ 107.64060299966697, -6.955041000284771 ], [ 107.64051400002228, -6.954926999651286 ], [ 107.6404029996873, -6.954881999590434 ], [ 107.6396849999781, -6.954676999672786 ], [ 107.63965599990765, -6.954596999551057 ], [ 107.63959099956689, -6.954314999921194 ], [ 107.63951500030484, -6.953979999565045 ], [ 107.63948400024502, -6.953919000077561 ], [ 107.63947799976543, -6.953873000180963 ], [ 107.63947800013958, -6.953796000182814 ], [ 107.63949799976616, -6.953698999986403 ], [ 107.63951800040333, -6.953596999833555 ], [ 107.63954199961711, -6.953406999723756 ], [ 107.63955200013352, -6.953238000134715 ], [ 107.63955100015451, -6.953176999602402 ], [ 107.63953599989193, -6.953110000029669 ], [ 107.63950899997508, -6.953043999949504 ], [ 107.6394679997219, -6.952983000175402 ], [ 107.63938000025486, -6.952881000433587 ], [ 107.6392820001859, -6.952753999723982 ], [ 107.63924100017547, -6.952676999693967 ], [ 107.63924099957507, -6.952615999897916 ], [ 107.63926599977532, -6.952543999609472 ], [ 107.63930099958719, -6.952461999687161 ], [ 107.63935200014807, -6.95237500005975 ], [ 107.6394429999371, -6.952236000373287 ], [ 107.63952499960752, -6.952097000267187 ], [ 107.63956500040251, -6.952014999578296 ], [ 107.63962100036542, -6.95186100000689 ], [ 107.63965099989676, -6.951790000222529 ], [ 107.63968100034546, -6.951701999873408 ], [ 107.63973200033415, -6.951594999550025 ], [ 107.63986800040252, -6.951246000399781 ], [ 107.63993900024535, -6.951020999781527 ], [ 107.64002999967865, -6.950739000451858 ], [ 107.64011000019011, -6.950467000019779 ], [ 107.64013000031629, -6.950338999827125 ], [ 107.64012399968867, -6.950256999933 ], [ 107.64009799972938, -6.950164999590283 ], [ 107.6400409995791, -6.950042999774544 ], [ 107.6399890002115, -6.949924999673568 ], [ 107.63991099979549, -6.949736000248307 ], [ 107.63981200001173, -6.949496999945292 ], [ 107.63975499964765, -6.949302999997816 ], [ 107.63973400031679, -6.949189999563161 ], [ 107.63972299998363, -6.949097999579327 ], [ 107.63972300044817, -6.948990999867508 ], [ 107.63972400015545, -6.948872000302055 ], [ 107.63974200018392, -6.948790999783003 ], [ 107.63977199969486, -6.948667999834121 ], [ 107.63981699956555, -6.948499000398656 ], [ 107.63985799962306, -6.948406000306985 ], [ 107.63989799993035, -6.948257999991371 ], [ 107.63993299976237, -6.94812500029773 ], [ 107.63996300008448, -6.947961000396908 ], [ 107.63999299990493, -6.947817000310931 ], [ 107.64001799984594, -6.947715000399427 ], [ 107.64004299955826, -6.947658000055991 ], [ 107.64008900004761, -6.947555999674495 ], [ 107.64011399965592, -6.947509999588333 ], [ 107.64018500010378, -6.947376000432744 ], [ 107.64022500036077, -6.947262999811796 ], [ 107.64023499981937, -6.947212000245236 ], [ 107.64023500013589, -6.947156000431628 ], [ 107.640219000168, -6.947043000167689 ], [ 107.64021300013952, -6.946910999838391 ], [ 107.64020699959423, -6.946792999915342 ], [ 107.64022700030746, -6.946684999571462 ], [ 107.64025700039197, -6.946536999921856 ], [ 107.64027199969303, -6.946367999680083 ], [ 107.64027599972954, -6.946235000200909 ], [ 107.64026500027853, -6.946025000301666 ], [ 107.64025199992643, -6.945863999862271 ], [ 107.64031399987873, -6.945843999757358 ], [ 107.64045000041718, -6.945798999571411 ], [ 107.64158699978778, -6.945431000298259 ], [ 107.64186300041443, -6.945361000315602 ], [ 107.64198600026907, -6.945335999762682 ], [ 107.64224800030804, -6.94525199956222 ], [ 107.64254400003863, -6.945142999699528 ], [ 107.64310100009627, -6.945007999688102 ], [ 107.64343900045246, -6.944907000155291 ], [ 107.64378000024433, -6.94480599996555 ], [ 107.64427400037358, -6.944657999690573 ], [ 107.64501900014163, -6.944415000068974 ], [ 107.64520000002851, -6.944338999851634 ], [ 107.64544699972794, -6.94426400020407 ], [ 107.64635999988504, -6.943982000027957 ], [ 107.64643700028628, -6.943958000004088 ], [ 107.64662799976864, -6.943899000049307 ], [ 107.64666500019243, -6.943881999886392 ], [ 107.64752699968534, -6.94361700041208 ], [ 107.64852299980501, -6.943284000091551 ], [ 107.64958799959119, -6.942920000324976 ], [ 107.64991700045182, -6.942810000150991 ], [ 107.65041999961387, -6.942666999657216 ], [ 107.65090300026812, -6.942529999684362 ], [ 107.65172199983928, -6.942264000420952 ], [ 107.65196500027184, -6.942185000174209 ], [ 107.6525040002702, -6.942012000439842 ], [ 107.6526559996549, -6.941969000010183 ], [ 107.65274000031478, -6.941939999885984 ], [ 107.6529449998348, -6.941871000251012 ], [ 107.65293500037559, -6.941813000238771 ], [ 107.65281700009473, -6.94132399997954 ], [ 107.65278300000661, -6.941178999673109 ], [ 107.65275100001803, -6.940961000249914 ], [ 107.6528269999307, -6.940691999929523 ], [ 107.652862000295, -6.94057300017059 ], [ 107.6529079999718, -6.940419000104286 ], [ 107.65294100024865, -6.940174000097541 ], [ 107.65333400016149, -6.940183000109087 ], [ 107.65400699997303, -6.940165000344862 ], [ 107.6540999998588, -6.940186000240834 ], [ 107.65413299992036, -6.939907999980357 ], [ 107.65449600005194, -6.93815200038928 ], [ 107.65459199984615, -6.937540000159496 ], [ 107.65469499957143, -6.937548999715924 ], [ 107.65484700023211, -6.937538000132716 ], [ 107.65487799981484, -6.93751200032032 ], [ 107.65491599983325, -6.937481999725623 ], [ 107.65495800044636, -6.937380999563081 ], [ 107.65496399991684, -6.937216000191121 ], [ 107.65496700000087, -6.937143000122205 ], [ 107.65496000014996, -6.936846999997674 ], [ 107.65495399984509, -6.936617999909707 ], [ 107.65495000012477, -6.936450999786634 ], [ 107.6549000003332, -6.936153000120139 ], [ 107.65577600012188, -6.936330000186656 ], [ 107.65604000033935, -6.93638400002463 ], [ 107.65644400031925, -6.936420999837605 ], [ 107.65666800014388, -6.93643899959106 ], [ 107.65675699957308, -6.9364459996835 ], [ 107.65687400013636, -6.936474000068994 ], [ 107.65708100013255, -6.936522999586867 ], [ 107.65794600028862, -6.936726000400806 ], [ 107.65878999982205, -6.936909000061801 ], [ 107.65882099958093, -6.936760000163731 ], [ 107.65891799997151, -6.936334999950966 ], [ 107.6589209998706, -6.936297999576562 ], [ 107.65895699978148, -6.935781999721541 ], [ 107.65900299967852, -6.935246999791445 ], [ 107.65899499958378, -6.935121999756834 ], [ 107.6589850000113, -6.934942999941887 ], [ 107.65888900042758, -6.934855999761477 ], [ 107.65889000014474, -6.934799999668011 ], [ 107.65892299998394, -6.934581000240632 ], [ 107.6588590002102, -6.934523999828956 ], [ 107.6587200001232, -6.934421000145686 ], [ 107.65874999995513, -6.934100999697168 ], [ 107.65875599981645, -6.934055999695446 ], [ 107.65882499995355, -6.933532999637845 ], [ 107.65886700009256, -6.933209000228585 ], [ 107.65893300001169, -6.933075000072361 ], [ 107.65899199960194, -6.932954999579072 ], [ 107.65901499956078, -6.932808000075131 ], [ 107.65897700020437, -6.9327299995733 ], [ 107.65877199975222, -6.932404999901719 ], [ 107.65880200010348, -6.932076000064045 ], [ 107.65903199999819, -6.930867999576732 ], [ 107.65915600015225, -6.930124000315921 ], [ 107.65917200025474, -6.929784000269319 ], [ 107.65922300030059, -6.929644000007694 ], [ 107.65924699983067, -6.929652000245508 ], [ 107.65937800018663, -6.929703000433214 ], [ 107.65951199989603, -6.929747999827164 ], [ 107.66010999996567, -6.929987999631098 ], [ 107.66015300031073, -6.930000000441916 ], [ 107.66025599955422, -6.930041999624886 ], [ 107.66042899964511, -6.930091999658103 ], [ 107.66047800016882, -6.930109999556995 ], [ 107.66058199980029, -6.930157999579143 ], [ 107.66076200016936, -6.930233000265911 ], [ 107.6609649996643, -6.930289999671436 ], [ 107.66119000042224, -6.930350999904888 ], [ 107.66187299991273, -6.930618000316922 ], [ 107.66236499990811, -6.930808000110616 ], [ 107.66252800006285, -6.930878999934023 ], [ 107.66255699981339, -6.930883999832266 ], [ 107.6639549995603, -6.93138600012681 ], [ 107.66403199992104, -6.931414000300976 ], [ 107.6640949999864, -6.931436999641695 ], [ 107.66481599989552, -6.931696000074782 ], [ 107.66671099981521, -6.932375999897578 ], [ 107.66672799987636, -6.932382000361402 ], [ 107.666731999954, -6.932384000239639 ], [ 107.66677800030561, -6.932401999894267 ], [ 107.6668270003958, -6.932421000190852 ], [ 107.66684499989607, -6.93242799988373 ], [ 107.66680599985743, -6.932578000273106 ], [ 107.6667629997055, -6.932771000330988 ], [ 107.66678599968877, -6.932956999571898 ], [ 107.66702099972693, -6.933481999659505 ], [ 107.66728400020618, -6.933944999571354 ], [ 107.66730700017662, -6.933986000434136 ], [ 107.66761099967628, -6.934504000032291 ], [ 107.66782099997246, -6.934892000383084 ], [ 107.668013000358, -6.935198999978053 ], [ 107.66815699990845, -6.93537300043219 ], [ 107.66826499997163, -6.935447999802575 ], [ 107.66832400044636, -6.935450999734632 ], [ 107.66851100037684, -6.935647000382944 ], [ 107.668773000092, -6.935912999705228 ], [ 107.66900000016975, -6.936256999953871 ], [ 107.66912199998796, -6.936548999799939 ], [ 107.66925999992174, -6.936911000333045 ], [ 107.66944699977502, -6.937286999795089 ], [ 107.66955300011756, -6.937550999725777 ], [ 107.66963999977682, -6.937885000314586 ], [ 107.66968899982412, -6.937935000302716 ], [ 107.66966100007636, -6.938033999767086 ], [ 107.66980300014775, -6.938529000202521 ], [ 107.66983399984102, -6.938667000254994 ], [ 107.66983400004953, -6.938667999678695 ], [ 107.66980499959628, -6.938841000182244 ], [ 107.6697719999427, -6.939626000167681 ], [ 107.66976500028503, -6.940054000360882 ], [ 107.6697579999082, -6.940478000146358 ], [ 107.66974300034987, -6.941432000398215 ], [ 107.66970899956739, -6.942357999963609 ], [ 107.6697089996708, -6.942447000281967 ], [ 107.66971100020847, -6.94272600023684 ], [ 107.66976299996247, -6.943034000084047 ], [ 107.66989999962669, -6.94355200028044 ], [ 107.67008100005373, -6.943891000007596 ], [ 107.67049899996415, -6.944438000082485 ], [ 107.67055200000803, -6.94458399956662 ], [ 107.67068800043752, -6.945077000069645 ], [ 107.67090799984759, -6.945741000388178 ], [ 107.67101999974446, -6.946080999891202 ], [ 107.67120500002741, -6.946638999697391 ], [ 107.67123899997357, -6.946738999738693 ], [ 107.6712849999989, -6.947136000332012 ], [ 107.67131100013913, -6.94747499982565 ], [ 107.67131200029242, -6.947535999676816 ], [ 107.67131400009802, -6.947733000414429 ], [ 107.67127700019341, -6.947970000139913 ], [ 107.67121499974267, -6.948333999880339 ], [ 107.67113399978862, -6.949040000004373 ], [ 107.67110400007094, -6.949126000353834 ], [ 107.67106100009866, -6.949274000337962 ], [ 107.67096999985876, -6.949585000000463 ], [ 107.67077799972751, -6.950683000179299 ], [ 107.6708159997618, -6.950802000082811 ], [ 107.67115900009651, -6.951348000318271 ], [ 107.67126600001293, -6.951494000062788 ], [ 107.67172599999462, -6.952122000379568 ], [ 107.67189899995316, -6.952431999843496 ], [ 107.67195400022416, -6.952662999720333 ], [ 107.67219200035333, -6.953647000021474 ], [ 107.67233600014127, -6.954215000150387 ], [ 107.67238699984334, -6.954592999828617 ], [ 107.67238699973714, -6.955157999646459 ], [ 107.67240099986103, -6.955347000247814 ], [ 107.67253500014714, -6.955429999670211 ], [ 107.67285699962537, -6.955526999761362 ], [ 107.67348299998906, -6.955612999766574 ], [ 107.67412700021133, -6.955530000410393 ], [ 107.67425099993449, -6.955139999863416 ], [ 107.67637400025137, -6.955174999824004 ], [ 107.67653699974879, -6.955200999785967 ], [ 107.67669099982456, -6.955209999930359 ], [ 107.67713900026452, -6.955233999676298 ], [ 107.67734399963167, -6.955246000269227 ], [ 107.67757500044695, -6.955318999768545 ], [ 107.67764099995148, -6.955370999942025 ], [ 107.67766800022534, -6.955400000150804 ], [ 107.67755299972397, -6.956323000054312 ], [ 107.6775409996707, -6.956525999555773 ], [ 107.6775399995702, -6.956544999582831 ], [ 107.67751599981446, -6.956967000124908 ], [ 107.6774449998031, -6.957665999829423 ], [ 107.67730000014852, -6.958386999959542 ], [ 107.67727300010685, -6.958641999948703 ], [ 107.67712899996513, -6.960071000242912 ], [ 107.67697099981037, -6.960556000079308 ], [ 107.67685500019284, -6.961127999845361 ], [ 107.67671400003982, -6.961829000275696 ], [ 107.67656299989324, -6.963179000067065 ], [ 107.67654999980064, -6.963296000255594 ], [ 107.67656400001428, -6.964027000262933 ], [ 107.6765659998478, -6.964065000280635 ], [ 107.67649799955167, -6.964058000017284 ], [ 107.67650200036796, -6.964724999893384 ], [ 107.67652600024483, -6.965431999656528 ], [ 107.67651199968073, -6.966170999969497 ], [ 107.67646699985958, -6.967439000317494 ], [ 107.67644900026042, -6.967883999936984 ], [ 107.67643999976221, -6.968117999844465 ] ] ] } }
    ]
}