{
"type": "FeatureCollection",
"crs": { "type": "name", "properties": { "name": "urn:ogc:def:crs:OGC:1.3:CRS84" } },
"features": [
        { "type": "Feature", "properties": { "FID": 4557, "OBJECTID": 4558, "ID_DESA": "3273210001", "DESA": "SUKAMAJU", "KECAMATAN": "CIBEUNYING KIDUL", "KABUPATEN": "K_BANDUNG", "PROVINSI": "JAWA BARAT", "ID_KEC": "3273210", "ID_KAB": "3273", "ID_PROV": "32", "Shape_Leng": 3099.561183, "Shape_Area": 511043.66651000001, "Luas_Km_": 0.511044 }, "geometry": { "type": "Polygon", "coordinates": [ [ [ 107.63731699972038, -6.911867000081254 ], [ 107.63730800010316, -6.911872000202283 ], [ 107.63676300026697, -6.912156999944883 ], [ 107.6352259997889, -6.912961000035517 ], [ 107.63480899991879, -6.913161000449993 ], [ 107.63432099959799, -6.913441000164551 ], [ 107.63411500031626, -6.913094999884024 ], [ 107.63410200024794, -6.913069999627532 ], [ 107.63408300017285, -6.913036000436757 ], [ 107.63385200043298, -6.912686999814752 ], [ 107.63343299979142, -6.912039000203906 ], [ 107.63325299978908, -6.911763999978604 ], [ 107.63285100012654, -6.91114499964394 ], [ 107.63257299983121, -6.910751999605314 ], [ 107.6322190003217, -6.910259000262641 ], [ 107.63219300034024, -6.910223000017406 ], [ 107.63206100011776, -6.909966999666 ], [ 107.63193900031541, -6.909760000423028 ], [ 107.63193099971167, -6.909747000205704 ], [ 107.63170800012225, -6.909406000261539 ], [ 107.63122399989189, -6.908654000072883 ], [ 107.63100800027726, -6.908318999950884 ], [ 107.6307799997584, -6.907960000312258 ], [ 107.63075099964418, -6.907914999668216 ], [ 107.63063200029669, -6.90773100042435 ], [ 107.63051699965405, -6.90755499999283 ], [ 107.63038899978554, -6.907357000084109 ], [ 107.63012200016925, -6.906998000019692 ], [ 107.62995199978178, -6.906770000407354 ], [ 107.63024799972949, -6.906377000260346 ], [ 107.63045599968243, -6.906151999800247 ], [ 107.63050900008507, -6.906068000417185 ], [ 107.63059899959752, -6.905924000147889 ], [ 107.63062700019938, -6.905879999585822 ], [ 107.6307800000376, -6.905553000317468 ], [ 107.63100099959117, -6.90526200008305 ], [ 107.63118000004184, -6.90503800012748 ], [ 107.6316900001946, -6.904331999731666 ], [ 107.63189800003714, -6.90408500033823 ], [ 107.63256400026366, -6.903335000032076 ], [ 107.63279700015347, -6.903096000017885 ], [ 107.63291399956034, -6.903019000293446 ], [ 107.63293799997595, -6.903015000036183 ], [ 107.63296900042798, -6.903004000170047 ], [ 107.63304699997016, -6.90296100031736 ], [ 107.6332019997335, -6.902882999941766 ], [ 107.6332179997403, -6.902874999960341 ], [ 107.63334200013063, -6.902810000144817 ], [ 107.63343099999585, -6.902768000390319 ], [ 107.63360200011931, -6.902686999928726 ], [ 107.63383400024732, -6.902570000134163 ], [ 107.63424699996489, -6.902361000111941 ], [ 107.63465700001818, -6.902153999987442 ], [ 107.63496900004776, -6.901996999780659 ], [ 107.63504500039038, -6.901958999911789 ], [ 107.63504299985172, -6.90195599995686 ], [ 107.63497900016404, -6.901804999715567 ], [ 107.63449900007754, -6.90082800034537 ], [ 107.63435599968473, -6.90056499957351 ], [ 107.63432900013956, -6.900519000336368 ], [ 107.63425899973186, -6.900395999628854 ], [ 107.63417700016684, -6.900198000378165 ], [ 107.63407200006201, -6.89980999955358 ], [ 107.63403499957926, -6.899600000397782 ], [ 107.63399000038972, -6.899348999992594 ], [ 107.63398700028382, -6.898839000179974 ], [ 107.63403000001915, -6.898289999862052 ], [ 107.63414399991689, -6.897866000190791 ], [ 107.63413700024978, -6.897806000188461 ], [ 107.6342690000121, -6.897792000048391 ], [ 107.6345319996864, -6.897818999563197 ], [ 107.63499299990437, -6.897924999824818 ], [ 107.63519099972594, -6.897970999680115 ], [ 107.63695999977433, -6.898383000102359 ], [ 107.63696500036984, -6.898383999923481 ], [ 107.63731300017729, -6.89847700039416 ], [ 107.63759900024858, -6.898553000298846 ], [ 107.63789900024716, -6.898624000318651 ], [ 107.6382569997872, -6.898696999916589 ], [ 107.64000600032868, -6.899125999704878 ], [ 107.640737000302, -6.899302999579684 ], [ 107.64136600028304, -6.899455000298084 ], [ 107.6417449998483, -6.899547000172549 ], [ 107.64174599994367, -6.899547000054752 ], [ 107.64254300029518, -6.899738999602388 ], [ 107.6432690001545, -6.899922000285382 ], [ 107.64339199955953, -6.899939000417998 ], [ 107.64343899982391, -6.899105999896757 ], [ 107.64354600034241, -6.898409999584372 ], [ 107.64364899988044, -6.897927999856593 ], [ 107.6436520000358, -6.897809999694918 ], [ 107.64366699991989, -6.897306999573633 ], [ 107.64367499958307, -6.89705600008315 ], [ 107.64358999962074, -6.89622499984756 ], [ 107.6435429996629, -6.896007000345679 ], [ 107.64354300044329, -6.896005999990622 ], [ 107.64357100019215, -6.895738999730592 ], [ 107.64365299964817, -6.895341999933248 ], [ 107.64364100006738, -6.89498899954898 ], [ 107.64363000041291, -6.894147000134656 ], [ 107.64370500011782, -6.893987999760927 ], [ 107.64399799954722, -6.893618999639126 ], [ 107.6440470001217, -6.893485999691125 ], [ 107.64419800017134, -6.893146000202821 ], [ 107.64431699963906, -6.89295799990365 ], [ 107.64450799976917, -6.892781000406716 ], [ 107.64462899973111, -6.892641999849396 ], [ 107.64477099997255, -6.892402999772004 ], [ 107.64507699982853, -6.891722999611897 ], [ 107.64508500001288, -6.891712000241704 ], [ 107.64547200031974, -6.891287000182043 ], [ 107.64566899998779, -6.891147999629225 ], [ 107.64600599996527, -6.891345999617465 ], [ 107.64605, -6.89137800008903 ], [ 107.64645299961524, -6.891668999733291 ], [ 107.646560000016, -6.891716000445484 ], [ 107.64669700031824, -6.891743999898184 ], [ 107.64693399992217, -6.89173500043799 ], [ 107.64715800028029, -6.891689999862713 ], [ 107.64743900034696, -6.89158099975268 ], [ 107.64782000022636, -6.891442000238998 ], [ 107.64793900023265, -6.891458000105411 ], [ 107.64803600016134, -6.891472000168742 ], [ 107.64814899975356, -6.891565999796065 ], [ 107.64830100005224, -6.891713000255109 ], [ 107.64837000024639, -6.891751999746552 ], [ 107.64840800007869, -6.891798999557282 ], [ 107.64857999982164, -6.891858999716926 ], [ 107.64874100044025, -6.891896999875493 ], [ 107.6487770001545, -6.891909000406357 ], [ 107.64897099976983, -6.891976000044679 ], [ 107.6491109995753, -6.892075000351845 ], [ 107.64913100044889, -6.89219499962275 ], [ 107.64910200009197, -6.89327900023207 ], [ 107.64926199980799, -6.893354999754125 ], [ 107.64997500044342, -6.893607000367326 ], [ 107.65020000043444, -6.893686999638245 ], [ 107.65061499971459, -6.89383399969914 ], [ 107.65070800016269, -6.893877999942015 ], [ 107.65072100034723, -6.893892000350472 ], [ 107.65077700017295, -6.893918999580679 ], [ 107.65099400034484, -6.893996999636824 ], [ 107.65186599996451, -6.89427000000762 ], [ 107.65215899965499, -6.894262000264129 ], [ 107.6526769999804, -6.894298000255671 ], [ 107.65273599961438, -6.894301999923128 ], [ 107.65299400017719, -6.894327000393019 ], [ 107.65302799956986, -6.894330000388436 ], [ 107.65302800012945, -6.894333999951206 ], [ 107.65305799955991, -6.894333000022058 ], [ 107.65330799959166, -6.894378000136124 ], [ 107.65362000044578, -6.894504000324649 ], [ 107.65368499974727, -6.894527999563891 ], [ 107.65379099978844, -6.894567000052196 ], [ 107.65397799980181, -6.894644999898974 ], [ 107.65430399956688, -6.894785999984895 ], [ 107.65437599982876, -6.894756000421244 ], [ 107.65449200042632, -6.89461099961246 ], [ 107.65460599977322, -6.894509000242068 ], [ 107.65472399981454, -6.894523000202457 ], [ 107.65493899986498, -6.894543000256372 ], [ 107.65508700018393, -6.894424999582506 ], [ 107.65534200031794, -6.894207999633694 ], [ 107.65550100011133, -6.894131999941523 ], [ 107.65560799997806, -6.894108000049513 ], [ 107.65574600012474, -6.894119999871414 ], [ 107.65594299963681, -6.894129000146981 ], [ 107.6562320001553, -6.894216000168303 ], [ 107.65639700031949, -6.894270000273887 ], [ 107.65641400017988, -6.89427899998979 ], [ 107.65642799962026, -6.89425600008345 ], [ 107.65678200040122, -6.893653000394766 ], [ 107.65696499957298, -6.893388000384848 ], [ 107.65715399967581, -6.893213000292302 ], [ 107.65728999993202, -6.893064999863058 ], [ 107.65761900024019, -6.892603000277349 ], [ 107.65772400016989, -6.892384000103939 ], [ 107.65774999961663, -6.89233799968475 ], [ 107.65788900025343, -6.892120999778152 ], [ 107.65816300018541, -6.891694000235929 ], [ 107.65835599980581, -6.891393999571255 ], [ 107.65868399971109, -6.890930000422814 ], [ 107.65868199973522, -6.890924999923798 ], [ 107.65903900001204, -6.890467000376371 ], [ 107.65907999962191, -6.890404999582648 ], [ 107.6593940000006, -6.889982000104689 ], [ 107.65954500031698, -6.889760000404808 ], [ 107.65970799973236, -6.889528000084812 ], [ 107.65972100022192, -6.889508000442772 ], [ 107.65975100007967, -6.889483000226563 ], [ 107.65983199968716, -6.88935200003993 ], [ 107.65984499971319, -6.889323000069099 ], [ 107.6598749997019, -6.889286999747201 ], [ 107.6599580001314, -6.889161000051064 ], [ 107.66005199980461, -6.888989999798633 ], [ 107.66007400034323, -6.88894899986771 ], [ 107.66021099974461, -6.888718000122211 ], [ 107.66033700034802, -6.888458000342313 ], [ 107.66058800028075, -6.887896000365317 ], [ 107.66061399992378, -6.887865999956849 ], [ 107.66069800008096, -6.887770000330122 ], [ 107.6610569999963, -6.887392999851214 ], [ 107.66120699991038, -6.886986999787664 ], [ 107.66132100044149, -6.886687999589247 ], [ 107.66158400000263, -6.88615900015133 ], [ 107.66163300003608, -6.886076999602816 ], [ 107.66183000043824, -6.885774999696017 ], [ 107.66196800035725, -6.885561999667734 ], [ 107.66204299998576, -6.885505000056787 ], [ 107.66209700001299, -6.885516999668221 ], [ 107.66244600041507, -6.885593999641186 ], [ 107.66261099969752, -6.885341000146364 ], [ 107.66282000043492, -6.885055000133201 ], [ 107.66288399992267, -6.884949000113212 ], [ 107.66298599982338, -6.884780999774559 ], [ 107.66315200015872, -6.884472999759578 ], [ 107.66316299956482, -6.884453999865632 ], [ 107.66319500030984, -6.884402000191005 ], [ 107.66328000000594, -6.884238999586339 ], [ 107.66340500000611, -6.883984000060573 ], [ 107.66348099959193, -6.883806000314721 ], [ 107.66350200020598, -6.883656999595329 ], [ 107.66386799960476, -6.883919999989886 ], [ 107.66413500013923, -6.884072000442108 ], [ 107.66415600012756, -6.884089000228859 ], [ 107.66431299964171, -6.884179000115809 ], [ 107.66472600001651, -6.88433199983824 ], [ 107.6649490000875, -6.884393999821609 ], [ 107.66510900031794, -6.884497999946213 ], [ 107.66518200015513, -6.884612999964199 ], [ 107.66520500034558, -6.88485299974475 ], [ 107.66522799965183, -6.884916000052953 ], [ 107.6652460002875, -6.884966000399521 ], [ 107.66535200033975, -6.88504899990479 ], [ 107.66537100042535, -6.885061000053202 ], [ 107.66546900021581, -6.885081999950026 ], [ 107.66552699957394, -6.885094999776403 ], [ 107.66553599957162, -6.885098000278653 ], [ 107.66562900009347, -6.885193000297109 ], [ 107.66564900029324, -6.885245000061761 ], [ 107.66560799990646, -6.885248999667838 ], [ 107.66543999959707, -6.885256999620212 ], [ 107.66526500039639, -6.885405000352586 ], [ 107.66505699999169, -6.885909000407407 ], [ 107.66490899979884, -6.886237999592765 ], [ 107.66485000024966, -6.886446999985426 ], [ 107.66485199969748, -6.886584999708786 ], [ 107.66495300019251, -6.88678300043176 ], [ 107.66499499967244, -6.886891000140684 ], [ 107.66495700035404, -6.887031999859093 ], [ 107.66460599955985, -6.887310999634347 ], [ 107.66436200014192, -6.887815999552633 ], [ 107.6641590001702, -6.888118000225342 ], [ 107.66402699973972, -6.888262999678102 ], [ 107.66380200021254, -6.888377999863785 ], [ 107.66338700025527, -6.888495000138773 ], [ 107.66322000027559, -6.8885830002254 ], [ 107.66285299966209, -6.888774000444942 ], [ 107.66268099961819, -6.888865000382437 ], [ 107.66253499999407, -6.888885999906422 ], [ 107.6623980002703, -6.888850999985501 ], [ 107.66234700020613, -6.888788000127496 ], [ 107.66230099976292, -6.88870900044864 ], [ 107.66218800009885, -6.888641999590559 ], [ 107.66204699974273, -6.888674000085667 ], [ 107.66188799999861, -6.888711000425932 ], [ 107.66160099957196, -6.888821000303589 ], [ 107.66151299970394, -6.888895999941408 ], [ 107.66145800000318, -6.889042000451441 ], [ 107.66146100026454, -6.889933000056597 ], [ 107.66144700025859, -6.890102000349352 ], [ 107.66125799958851, -6.890586999821577 ], [ 107.66111800015533, -6.890898000170089 ], [ 107.66097799955082, -6.891173000161465 ], [ 107.66094500012669, -6.891236999609951 ], [ 107.66086699976985, -6.891558999777773 ], [ 107.660809000257, -6.891668000113998 ], [ 107.66064499999179, -6.891881000036959 ], [ 107.66062099970655, -6.891976999901771 ], [ 107.66058200019734, -6.892137000127225 ], [ 107.66055400041667, -6.893014000238932 ], [ 107.66055199961937, -6.893131999693511 ], [ 107.66055100025946, -6.893217999939529 ], [ 107.66051100011806, -6.893316000220199 ], [ 107.66045700015373, -6.893369000093369 ], [ 107.6603639999483, -6.893461000066058 ], [ 107.66018800040253, -6.893640999838489 ], [ 107.66007700002181, -6.893833999582416 ], [ 107.66003699995026, -6.893904000359994 ], [ 107.65982700041957, -6.893995999912758 ], [ 107.65924999971338, -6.894125999600319 ], [ 107.65889200031091, -6.894077000348875 ], [ 107.65875899987725, -6.894058999594098 ], [ 107.65865299971652, -6.894047999871694 ], [ 107.65847400041504, -6.894201999999593 ], [ 107.65833399981254, -6.894437000117037 ], [ 107.65820400011054, -6.894655999656896 ], [ 107.65788400034334, -6.895056999587154 ], [ 107.6576399995636, -6.895363000319967 ], [ 107.65748800028818, -6.895581000066036 ], [ 107.65743300039115, -6.895723000381647 ], [ 107.6574409998223, -6.895853000000241 ], [ 107.65764799962669, -6.896141999819723 ], [ 107.65769100027262, -6.896213999823555 ], [ 107.65767900032247, -6.896268000056873 ], [ 107.65741599987702, -6.896439999805042 ], [ 107.65733799962621, -6.896501999863641 ], [ 107.65730100029188, -6.896602999885514 ], [ 107.65726999996855, -6.896790000244637 ], [ 107.65726699958439, -6.896794999678366 ], [ 107.6571980000116, -6.896923000058963 ], [ 107.65709400036225, -6.897033000393789 ], [ 107.65696599967966, -6.897166999778205 ], [ 107.65681399961566, -6.897437999591508 ], [ 107.65680600031909, -6.897776000086912 ], [ 107.65673799961573, -6.897975000114439 ], [ 107.65670699955271, -6.898044999590094 ], [ 107.65658299965511, -6.8982080001531 ], [ 107.65653500000268, -6.898320000166642 ], [ 107.65657100034993, -6.898535999697218 ], [ 107.65672700036224, -6.898945999559666 ], [ 107.65699200008062, -6.899356999622224 ], [ 107.65708199996807, -6.899502000233696 ], [ 107.6570979995611, -6.899809000081688 ], [ 107.65710900040247, -6.899884999862348 ], [ 107.65732899984542, -6.900060000089807 ], [ 107.65746600043563, -6.900135000405747 ], [ 107.65744699992447, -6.90026500043291 ], [ 107.65758000005439, -6.901096000404328 ], [ 107.65760700000845, -6.901991000090702 ], [ 107.65759999964057, -6.902194999918891 ], [ 107.65741599964024, -6.902190000079684 ], [ 107.65730699967131, -6.90218299983463 ], [ 107.65574900006717, -6.902090000116049 ], [ 107.65561600039429, -6.902081999980492 ], [ 107.65531800023228, -6.902067999588793 ], [ 107.65503900009085, -6.902055000162766 ], [ 107.65472900043412, -6.902538999621477 ], [ 107.65450899998555, -6.902713000115393 ], [ 107.65437799984225, -6.902816999746053 ], [ 107.6536239999093, -6.903210999626102 ], [ 107.65324400008571, -6.903424000239499 ], [ 107.65293799981843, -6.903595000014167 ], [ 107.6524529996251, -6.903854999866202 ], [ 107.65240100007728, -6.903879999628329 ], [ 107.6522719999612, -6.903952000338408 ], [ 107.6515709997739, -6.904339000024494 ], [ 107.65128700016125, -6.904465999878343 ], [ 107.65123200000764, -6.904489999642832 ], [ 107.6509020001718, -6.904630000369324 ], [ 107.6506700000416, -6.904751999984418 ], [ 107.65045599980685, -6.904868000367 ], [ 107.6502610001086, -6.904969000091518 ], [ 107.65019499998905, -6.905001999899173 ], [ 107.64979699996256, -6.905227000093005 ], [ 107.64966999985721, -6.905297999755329 ], [ 107.64897899958696, -6.905675000422913 ], [ 107.64893599991521, -6.905696000038364 ], [ 107.64855099982151, -6.905889000306293 ], [ 107.64854499961876, -6.905892000358967 ], [ 107.64784500037321, -6.906259999937984 ], [ 107.64759200013705, -6.906405000430003 ], [ 107.64746900008808, -6.906453000250881 ], [ 107.64737699960483, -6.90650699977158 ], [ 107.64720199971782, -6.906636000347148 ], [ 107.64643500019349, -6.906995000004594 ], [ 107.64625999963516, -6.907103000314293 ], [ 107.64600999979494, -6.907257000332815 ], [ 107.6455020003001, -6.907516999824924 ], [ 107.64540700023105, -6.907566999926871 ], [ 107.64474600035605, -6.907910000056694 ], [ 107.64444999968224, -6.908064000166008 ], [ 107.64385700015832, -6.908357999779781 ], [ 107.64378800030508, -6.908376999940816 ], [ 107.6437829998728, -6.90837800003224 ], [ 107.64373100027602, -6.908404999898364 ], [ 107.64364700035112, -6.90845699997306 ], [ 107.64348300015601, -6.908576000325312 ], [ 107.64325499968274, -6.908701000085507 ], [ 107.6431590003173, -6.908747999888324 ], [ 107.64313700015236, -6.908759000224692 ], [ 107.64275300004397, -6.908998000043432 ], [ 107.64261400013648, -6.909072999699443 ], [ 107.64247700014994, -6.909146000183749 ], [ 107.64167700039707, -6.909573999932349 ], [ 107.64164000044285, -6.909593999844134 ], [ 107.64069799971622, -6.910105000350162 ], [ 107.64052900006781, -6.910181000073516 ], [ 107.63979599973776, -6.910509999890428 ], [ 107.63957899988446, -6.910641000266052 ], [ 107.63938600002101, -6.910756999606751 ], [ 107.63916699990207, -6.910889999924913 ], [ 107.63844300013599, -6.911235999720422 ], [ 107.63837199992756, -6.911275999781449 ], [ 107.63770799984148, -6.911651999638938 ], [ 107.63749800029308, -6.911767000187109 ], [ 107.63744200042825, -6.911795999912899 ], [ 107.63731699972038, -6.911867000081254 ] ] ] } }
    ]
}