{
"type": "FeatureCollection",
"crs": { "type": "name", "properties": { "name": "urn:ogc:def:crs:OGC:1.3:CRS84" } },
"features": [
    { "type": "Feature", "properties": { "FID": 4548, "OBJECTID": 4549, "ID_DESA": "3273190001", "DESA": "ARJUNA", "KECAMATAN": "CICENDO", "KABUPATEN": "K_BANDUNG", "PROVINSI": "JAWA BARAT", "ID_KEC": "3273190", "ID_KAB": "3273", "ID_PROV": "32", "Shape_Leng": 3795.80267, "Shape_Area": 798412.46283199999, "Luas_Km_": 0.798412 }, "geometry": { "type": "Polygon", "coordinates": [ [ [ 107.59810099976058, -6.91431699972514 ], [ 107.59799399996979, -6.914324000030937 ], [ 107.5962339996979, -6.914299999562737 ], [ 107.59587099961304, -6.914281000399082 ], [ 107.5953660004493, -6.914254999948207 ], [ 107.59485400000247, -6.914229000059755 ], [ 107.59340599971468, -6.914036000435848 ], [ 107.5931869997975, -6.914032999653054 ], [ 107.59159800015104, -6.914013000222447 ], [ 107.59100900034737, -6.913986000085702 ], [ 107.59056000026726, -6.913964999570729 ], [ 107.59002499961103, -6.913956999981069 ], [ 107.58970200031816, -6.913931999997586 ], [ 107.58922499978101, -6.913871000178327 ], [ 107.58908600034046, -6.91384200028169 ], [ 107.58894499996762, -6.913914000280023 ], [ 107.58856099992755, -6.913829999943626 ], [ 107.58725099998344, -6.913490999878142 ], [ 107.58724999978216, -6.913489000008206 ], [ 107.58721200038251, -6.913474000021886 ], [ 107.58697300024581, -6.913377000132746 ], [ 107.58631900007227, -6.913035000386588 ], [ 107.58553299979019, -6.912518999591216 ], [ 107.58499999958777, -6.912155000078205 ], [ 107.58477799960538, -6.911985000359881 ], [ 107.58447999961597, -6.91179900004019 ], [ 107.58423700012332, -6.911634999729836 ], [ 107.5833959996252, -6.911058999974444 ], [ 107.58319900037971, -6.91091399992286 ], [ 107.58303099993104, -6.910805999927703 ], [ 107.5827700001247, -6.910639000052494 ], [ 107.58235399968289, -6.910356000034712 ], [ 107.58216200007426, -6.910234000348185 ], [ 107.58197300011453, -6.910105999968527 ], [ 107.5818509996375, -6.910018999596757 ], [ 107.5812780004003, -6.909646999616285 ], [ 107.58052199999426, -6.909134999833556 ], [ 107.5803869996337, -6.909058999617931 ], [ 107.5803389999363, -6.909032999853897 ], [ 107.57991999962618, -6.908752999636266 ], [ 107.57988500027631, -6.908732999566382 ], [ 107.57963699997546, -6.908560999734688 ], [ 107.57913999968383, -6.908214999576228 ], [ 107.57903000016486, -6.908142000188968 ], [ 107.5790590000809, -6.908004000275411 ], [ 107.57886399974039, -6.907875999778942 ], [ 107.5785700000728, -6.907681999798005 ], [ 107.57813799955453, -6.907412000164046 ], [ 107.57671099990142, -6.906449000373163 ], [ 107.57664400044345, -6.906404000277368 ], [ 107.57512500038533, -6.905434000094451 ], [ 107.57456599978151, -6.905069999650794 ], [ 107.57370500017531, -6.904479999630579 ], [ 107.57347900025459, -6.904342000150147 ], [ 107.57333499981782, -6.904254999579244 ], [ 107.57319999991611, -6.904169999963432 ], [ 107.57311199970223, -6.904113999603576 ], [ 107.57294699959891, -6.903985999818998 ], [ 107.57265099987072, -6.903802000205035 ], [ 107.57261400000267, -6.903775000079865 ], [ 107.5726110004499, -6.903773999596971 ], [ 107.5720890000772, -6.903403999625366 ], [ 107.57165300041601, -6.903110000407169 ], [ 107.57140999963245, -6.902939999562354 ], [ 107.57121700010647, -6.902824000232004 ], [ 107.57087300014098, -6.902576999988183 ], [ 107.57080000004763, -6.902556000123814 ], [ 107.57079600034545, -6.902554999596339 ], [ 107.57048699984213, -6.902344000171868 ], [ 107.57014300040561, -6.902133000245144 ], [ 107.56925800009087, -6.901568999830883 ], [ 107.56919400016005, -6.901474999954202 ], [ 107.56911400010223, -6.901392999896091 ], [ 107.56900100005517, -6.901262000352565 ], [ 107.56891600025388, -6.901207000247485 ], [ 107.56856199961058, -6.900968999886501 ], [ 107.56826999990638, -6.900784999980434 ], [ 107.56744099955125, -6.900199000131966 ], [ 107.56719200030057, -6.900033000134092 ], [ 107.56680600025591, -6.899782999769563 ], [ 107.56690100014141, -6.899643999892058 ], [ 107.56692699989748, -6.899611999560508 ], [ 107.56731700032772, -6.899183999587933 ], [ 107.5673920002465, -6.898852999760058 ], [ 107.56739400038765, -6.898733000367979 ], [ 107.56746500018517, -6.898637000002423 ], [ 107.56747699990851, -6.898619999840882 ], [ 107.56757499986067, -6.898457000207157 ], [ 107.56772800007624, -6.898164000112788 ], [ 107.56788099967737, -6.897858999643422 ], [ 107.56792199983141, -6.897773999894414 ], [ 107.5680500002349, -6.897590000093744 ], [ 107.56821399966779, -6.897453999660017 ], [ 107.5683210003228, -6.897271999850414 ], [ 107.56843500003058, -6.897092999742342 ], [ 107.56811300005829, -6.897151000015708 ], [ 107.56796899994609, -6.897188999924477 ], [ 107.56778100038714, -6.897230000163646 ], [ 107.56742999977897, -6.897349999885283 ], [ 107.56720599993976, -6.897371000211563 ], [ 107.56698300012437, -6.897369999591093 ], [ 107.56679799957634, -6.897346999577491 ], [ 107.56647699979837, -6.897155000209978 ], [ 107.56622000029869, -6.896793999878201 ], [ 107.56603900034827, -6.896465000430115 ], [ 107.56586200021206, -6.896161999938531 ], [ 107.56554100017718, -6.895746999962087 ], [ 107.56529600005683, -6.895459000258401 ], [ 107.56498799961363, -6.895119999823645 ], [ 107.56466699990612, -6.894753000410466 ], [ 107.56443799957344, -6.894563999894682 ], [ 107.56421600040771, -6.89435599984214 ], [ 107.56377699984527, -6.894032999904271 ], [ 107.56358200034823, -6.893885999716516 ], [ 107.56321499960384, -6.894238999993562 ], [ 107.56286500014548, -6.894715999911994 ], [ 107.56270100018537, -6.89505200009651 ], [ 107.56245599983231, -6.896012999738465 ], [ 107.56244299988765, -6.896009000115129 ], [ 107.56240499999839, -6.896075000126141 ], [ 107.56216900043336, -6.896557999644425 ], [ 107.56216499983142, -6.896558000341586 ], [ 107.5621389998515, -6.896550999694695 ], [ 107.56172999980299, -6.89627100033411 ], [ 107.56161299971065, -6.896190999766803 ], [ 107.56129699957165, -6.895931999978664 ], [ 107.56100700027625, -6.89573800023947 ], [ 107.56035099991283, -6.895350000157087 ], [ 107.5603209997257, -6.895252999727061 ], [ 107.56026199995476, -6.895269000274597 ], [ 107.56010199968574, -6.895230999671271 ], [ 107.55990000011144, -6.895148000445318 ], [ 107.55979500024696, -6.895088999607664 ], [ 107.55972700013442, -6.895118999961344 ], [ 107.55968000005394, -6.895042000429262 ], [ 107.55938899966573, -6.894577000328695 ], [ 107.55905799962528, -6.894030000316546 ], [ 107.55894300015484, -6.893834999755291 ], [ 107.55856899974123, -6.893254000268032 ], [ 107.55851199976952, -6.893172999994682 ], [ 107.55839999972893, -6.893049000009664 ], [ 107.55804400018913, -6.892432000209742 ], [ 107.55798299993845, -6.892320000169525 ], [ 107.55797899972222, -6.892314000120707 ], [ 107.55785100038969, -6.892087999655284 ], [ 107.55745699989146, -6.891355000366538 ], [ 107.55712799973287, -6.890812999557731 ], [ 107.55692700015165, -6.890486999691747 ], [ 107.55665599964722, -6.890055999704986 ], [ 107.55638999963598, -6.889568999787081 ], [ 107.55622899986528, -6.889321000357288 ], [ 107.55618200003704, -6.889247000402687 ], [ 107.55603100033628, -6.889009000297537 ], [ 107.55626299965623, -6.888911000115609 ], [ 107.55633000042106, -6.888891000086345 ], [ 107.55725600016453, -6.888601000279746 ], [ 107.55803499963527, -6.888383000258409 ], [ 107.55844099994073, -6.888300999568859 ], [ 107.55912200012871, -6.888165000433419 ], [ 107.55930200039842, -6.888147000130717 ], [ 107.55963900029691, -6.888112999599054 ], [ 107.56027300033507, -6.888050000144967 ], [ 107.56091099976301, -6.888013999616891 ], [ 107.56150999954605, -6.887999999613891 ], [ 107.56174199979597, -6.888001000418755 ], [ 107.56196399957416, -6.888017999917915 ], [ 107.56240299985843, -6.888041999574893 ], [ 107.56292400028563, -6.888095999659479 ], [ 107.5631039997464, -6.88811400021689 ], [ 107.56330299974945, -6.888135000300855 ], [ 107.56347499993122, -6.888153000251648 ], [ 107.56391500044673, -6.888238999689959 ], [ 107.56500199974541, -6.888451999725179 ], [ 107.56514800043794, -6.888481000356481 ], [ 107.56602499980126, -6.888663999614493 ], [ 107.56655700024223, -6.888762000396736 ], [ 107.56677200044324, -6.888802999740162 ], [ 107.56700099968833, -6.888845999570009 ], [ 107.56714199988384, -6.888871999839426 ], [ 107.56890999962913, -6.889249000396182 ], [ 107.57029299974718, -6.889544000441288 ], [ 107.57094299990281, -6.889679999638705 ], [ 107.5715059999353, -6.889781999659111 ], [ 107.5721679998733, -6.889920000013809 ], [ 107.57259399961724, -6.889985999704229 ], [ 107.57284599989903, -6.890037000379615 ], [ 107.57396199998456, -6.890292000429083 ], [ 107.57525100044769, -6.890566000300188 ], [ 107.57598100014606, -6.890715999585264 ], [ 107.57603699981713, -6.890727999660467 ], [ 107.57613600029885, -6.890747999618137 ], [ 107.5763400001851, -6.890790000437238 ], [ 107.57652699978939, -6.890827999995997 ], [ 107.57780900011257, -6.89109000041084 ], [ 107.57849599972226, -6.891253999850579 ], [ 107.57874800010735, -6.891311000233633 ], [ 107.57878099967128, -6.891318000142364 ], [ 107.57913700029526, -6.891448999659846 ], [ 107.57975000025866, -6.891758000161885 ], [ 107.58106699965421, -6.89219000007163 ], [ 107.58110499988689, -6.89219800026035 ], [ 107.58110600002512, -6.892196999876098 ], [ 107.58165400013156, -6.892288999843518 ], [ 107.58214499997037, -6.89231600042912 ], [ 107.58221499983637, -6.892315000081433 ], [ 107.58251700022895, -6.892312999665312 ], [ 107.58307599966638, -6.892304999764439 ], [ 107.58367099987439, -6.892280999554999 ], [ 107.58402200012559, -6.892360000158063 ], [ 107.58410200011775, -6.892379999835626 ], [ 107.58453300035646, -6.892487999616546 ], [ 107.58459800031025, -6.892504000190779 ], [ 107.58469300036109, -6.892530999942256 ], [ 107.58486399992418, -6.892578999563492 ], [ 107.58491999965912, -6.892595000016204 ], [ 107.58507700011241, -6.892665000020088 ], [ 107.58550900027348, -6.892909999691645 ], [ 107.58584300023162, -6.893132000040224 ], [ 107.58601800040655, -6.893249000235646 ], [ 107.58614199967482, -6.89333200021941 ], [ 107.58663699971214, -6.893702000208561 ], [ 107.58690099982942, -6.893897999769447 ], [ 107.58704799959472, -6.893987000010886 ], [ 107.58707400020057, -6.894001999658249 ], [ 107.58716000035446, -6.894058999734181 ], [ 107.58737700027555, -6.894250999930061 ], [ 107.58750599968018, -6.894322000066132 ], [ 107.5875699998208, -6.89437199995821 ], [ 107.587586000079, -6.894382999788109 ], [ 107.58767700004609, -6.894428999906858 ], [ 107.58795799956731, -6.894655999952659 ], [ 107.58830500009277, -6.894979000408441 ], [ 107.58858000030398, -6.895200999697789 ], [ 107.58879000000837, -6.895335999925769 ], [ 107.58887300012822, -6.895386000394667 ], [ 107.58899700025879, -6.895460000215364 ], [ 107.58924200037471, -6.895628000361259 ], [ 107.58950999998947, -6.895796999706296 ], [ 107.58961200009728, -6.895862000372231 ], [ 107.5904690000838, -6.89631900034164 ], [ 107.5905160000969, -6.896345000269521 ], [ 107.59070500017711, -6.896436000234728 ], [ 107.59124900038839, -6.896703000084323 ], [ 107.59131500031788, -6.896737999643811 ], [ 107.59159599973948, -6.896887999696315 ], [ 107.59166500016826, -6.896928000208535 ], [ 107.59177999972289, -6.896996999840659 ], [ 107.59195499960992, -6.89711300000419 ], [ 107.59275400000413, -6.897626999890728 ], [ 107.59314400033031, -6.897958000065242 ], [ 107.59352499981964, -6.898329000080169 ], [ 107.59367299967899, -6.898493000299003 ], [ 107.59378499983612, -6.898583999674853 ], [ 107.59396700041309, -6.898732000198521 ], [ 107.59413200040086, -6.898867000353928 ], [ 107.59445399997533, -6.899155999786564 ], [ 107.5946210001305, -6.899316000313028 ], [ 107.59478199957289, -6.899474999560568 ], [ 107.59495300023269, -6.899624000054451 ], [ 107.59499199984104, -6.899657999877249 ], [ 107.59541700018043, -6.899929999609197 ], [ 107.59582399977992, -6.900105999884973 ], [ 107.59602599990896, -6.900158000382395 ], [ 107.59623699999905, -6.900232000068715 ], [ 107.59657900007493, -6.900261000023526 ], [ 107.59737700007616, -6.900329000235953 ], [ 107.59740600035182, -6.900331000295896 ], [ 107.5984130004381, -6.90030799994492 ], [ 107.59917800026632, -6.900303999972494 ], [ 107.59930700005519, -6.900307000173957 ], [ 107.59960100045141, -6.900306000336607 ], [ 107.59964800025261, -6.90030599986775 ], [ 107.59965600042587, -6.900307000017439 ], [ 107.59976999985906, -6.900305000416306 ], [ 107.59982599992131, -6.900304999662596 ], [ 107.60032800042679, -6.900313000237511 ], [ 107.60065999975041, -6.900328000209139 ], [ 107.60108599994308, -6.900307000260613 ], [ 107.60123299970837, -6.900300000034609 ], [ 107.60137399958303, -6.900292999961559 ], [ 107.60141500031878, -6.900292000030857 ], [ 107.60142200031683, -6.900291999799943 ], [ 107.6019850002611, -6.90028499989627 ], [ 107.60226199996123, -6.900292000259935 ], [ 107.60227599980585, -6.90045299996323 ], [ 107.60233599959615, -6.901224999685361 ], [ 107.60235299988823, -6.90140599967806 ], [ 107.60236100018997, -6.901616000243657 ], [ 107.60238199982609, -6.902532999811896 ], [ 107.6023859999237, -6.902567000024502 ], [ 107.60242399993584, -6.902621000311616 ], [ 107.60258599986136, -6.902733000098099 ], [ 107.60272199963752, -6.902879999708868 ], [ 107.60285300040854, -6.90310799967684 ], [ 107.60296599968059, -6.903461000146433 ], [ 107.60309299987378, -6.903954000146377 ], [ 107.60309100014329, -6.904344000134348 ], [ 107.60343800033672, -6.904343000324383 ], [ 107.60437599995636, -6.904319999748441 ], [ 107.60437599979134, -6.904336000424778 ], [ 107.60437599962158, -6.904352000197451 ], [ 107.60440399958395, -6.905437000375931 ], [ 107.60441199962619, -6.905817999706882 ], [ 107.6044140000642, -6.905917000286828 ], [ 107.60441400029114, -6.905960000402828 ], [ 107.60441600003435, -6.906726999748773 ], [ 107.60447900002356, -6.907161999995425 ], [ 107.60447800042961, -6.907191999717742 ], [ 107.60447000000939, -6.907486000012828 ], [ 107.60448699987953, -6.908611999780224 ], [ 107.60444600021489, -6.909011000008683 ], [ 107.60438500000217, -6.90922099967607 ], [ 107.60423999960497, -6.909528999903287 ], [ 107.60422199982253, -6.909549999696529 ], [ 107.60419800014189, -6.909627000319945 ], [ 107.60413799979136, -6.909923999694489 ], [ 107.60410700021882, -6.910187000143476 ], [ 107.60410500015061, -6.910336000089712 ], [ 107.60410500029438, -6.910446999918447 ], [ 107.60407999995184, -6.910891000405351 ], [ 107.60400399985731, -6.911932000402483 ], [ 107.60395300029677, -6.912637000430681 ], [ 107.60396899990251, -6.912651999961079 ], [ 107.60409699982418, -6.912690999630544 ], [ 107.60442999984852, -6.912754000206606 ], [ 107.6047019996368, -6.91278400002658 ], [ 107.6047029999059, -6.912837000264179 ], [ 107.60459800013709, -6.914284999927839 ], [ 107.6046000004005, -6.914467000412485 ], [ 107.60454399993142, -6.914602999890686 ], [ 107.60427499977379, -6.914578000310817 ], [ 107.60391000024593, -6.914526000438657 ], [ 107.60390299999678, -6.914525000403776 ], [ 107.60367999978271, -6.914499999997974 ], [ 107.60285999979423, -6.91439199984012 ], [ 107.60276399977057, -6.914386999717499 ], [ 107.60241100015345, -6.91436999964837 ], [ 107.60233200013172, -6.914365999938787 ], [ 107.60203899970986, -6.914361999999332 ], [ 107.60140500005883, -6.914353000386492 ], [ 107.5996020004232, -6.914339000169423 ], [ 107.59913099984531, -6.914335999573635 ], [ 107.59910099955354, -6.914335999842216 ], [ 107.59837400017874, -6.914312999785724 ], [ 107.59827800009043, -6.914312999755981 ], [ 107.59821499989033, -6.91431300029148 ], [ 107.59818900017933, -6.914311999964667 ], [ 107.59810099976058, -6.91431699972514 ] ] ] } }
    ]
}