{
"type": "FeatureCollection",
"crs": { "type": "name", "properties": { "name": "urn:ogc:def:crs:OGC:1.3:CRS84" } },
"features": [
        { "type": "Feature", "properties": { "FID": 4538, "OBJECTID": 4539, "ID_DESA": "3273170001", "DESA": "BRAGA", "KECAMATAN": "SUMUR BANDUNG", "KABUPATEN": "K_BANDUNG", "PROVINSI": "JAWA BARAT", "ID_KEC": "3273170", "ID_KAB": "3273", "ID_PROV": "32", "Shape_Leng": 3346.002717, "Shape_Area": 640690.12652100006, "Luas_Km_": 0.64069 }, "geometry": { "type": "Polygon", "coordinates": [ [ [ 107.60509000024783, -6.920921000279088 ], [ 107.60461599977764, -6.920884000209123 ], [ 107.60415700044136, -6.920808999706576 ], [ 107.60411400020698, -6.920790999721707 ], [ 107.60411499996833, -6.920783999714248 ], [ 107.60415300043675, -6.919903000184882 ], [ 107.60416099996965, -6.919714999565911 ], [ 107.60417099990072, -6.919448999864998 ], [ 107.6041959995752, -6.919212999942947 ], [ 107.6042569995877, -6.918688000134281 ], [ 107.60428300004513, -6.918270999947696 ], [ 107.60428300018432, -6.918129999584499 ], [ 107.60430599976732, -6.917767999725018 ], [ 107.60433999990251, -6.917430999773902 ], [ 107.60436799986918, -6.917156000254956 ], [ 107.60437300025495, -6.917100000362096 ], [ 107.60446300041333, -6.916129000192601 ], [ 107.60449200004386, -6.91581000017819 ], [ 107.60451599960818, -6.915372000320432 ], [ 107.60454900016252, -6.91482500009041 ], [ 107.60455899996251, -6.914775999910494 ], [ 107.60457200003358, -6.914772999914588 ], [ 107.60454399993142, -6.914602999890686 ], [ 107.6046000004005, -6.914467000412485 ], [ 107.60459800013709, -6.914284999927839 ], [ 107.6047029999059, -6.912837000264179 ], [ 107.6047019996368, -6.91278400002658 ], [ 107.60442999984852, -6.912754000206606 ], [ 107.60409699982418, -6.912690999630544 ], [ 107.60396899990251, -6.912651999961079 ], [ 107.60395300029677, -6.912637000430681 ], [ 107.60400399985731, -6.911932000402483 ], [ 107.60407999995184, -6.910891000405351 ], [ 107.60410500029438, -6.910446999918447 ], [ 107.60410500015061, -6.910336000089712 ], [ 107.60410700021882, -6.910187000143476 ], [ 107.60413799979136, -6.909923999694489 ], [ 107.60419800014189, -6.909627000319945 ], [ 107.60422199982253, -6.909549999696529 ], [ 107.60423999960497, -6.909528999903287 ], [ 107.60438500000217, -6.90922099967607 ], [ 107.60444600021489, -6.909011000008683 ], [ 107.60448699987953, -6.908611999780224 ], [ 107.60447000000939, -6.907486000012828 ], [ 107.60447800042961, -6.907191999717742 ], [ 107.60447900002356, -6.907161999995425 ], [ 107.60524700001622, -6.90716799981211 ], [ 107.6054720000334, -6.907168999643051 ], [ 107.60570599992619, -6.907178999650293 ], [ 107.60575599986134, -6.90718200022722 ], [ 107.60618000006112, -6.907174000369941 ], [ 107.60643399996685, -6.907202000451401 ], [ 107.6067000004104, -6.907277000441353 ], [ 107.60719099996915, -6.907506000264233 ], [ 107.60728199968985, -6.90756600028994 ], [ 107.60750299991903, -6.90771500019179 ], [ 107.60753200004503, -6.907741999878502 ], [ 107.6076159996496, -6.907358999687955 ], [ 107.60768599973889, -6.906856000015875 ], [ 107.60774499967303, -6.906542000166553 ], [ 107.6077619995929, -6.906497999817663 ], [ 107.60833199992813, -6.906627000090495 ], [ 107.60861800040198, -6.906694000364919 ], [ 107.60905299996502, -6.90675199985479 ], [ 107.60930799998714, -6.906806000038785 ], [ 107.6097160004061, -6.906864999796682 ], [ 107.60990699968271, -6.906885999772161 ], [ 107.60991899957384, -6.906887000381231 ], [ 107.61015400030846, -6.90692299980884 ], [ 107.61043899995113, -6.906962999570278 ], [ 107.61058199966686, -6.906994999799648 ], [ 107.61059899991623, -6.909791999860257 ], [ 107.61062399985023, -6.90979200017489 ], [ 107.61161500025489, -6.909796000166107 ], [ 107.61236700034891, -6.909794999681875 ], [ 107.61248200041423, -6.909811000174878 ], [ 107.61259599994779, -6.909848000435828 ], [ 107.61362599961987, -6.910312999690968 ], [ 107.61375100042645, -6.910370000003969 ], [ 107.61383399987206, -6.91037600031224 ], [ 107.61389099964693, -6.91034899996363 ], [ 107.61431799998931, -6.910211000062313 ], [ 107.6149610000444, -6.909983999718572 ], [ 107.61515799955947, -6.909937000200105 ], [ 107.61546900013326, -6.909862999756367 ], [ 107.61551799984316, -6.909852999831725 ], [ 107.61554100040559, -6.909842000446819 ], [ 107.61563300020815, -6.909801999883594 ], [ 107.61573900011668, -6.909762000128147 ], [ 107.61610000009313, -6.90964100003854 ], [ 107.61694799961521, -6.909356999803524 ], [ 107.61738900040504, -6.909199999669235 ], [ 107.61744100008988, -6.909175000129892 ], [ 107.6178029997497, -6.909006999657133 ], [ 107.61820399998426, -6.908853000355428 ], [ 107.61830599961033, -6.908824000038178 ], [ 107.61852900032895, -6.9087759997995 ], [ 107.61859500002707, -6.908774999858269 ], [ 107.61876899986095, -6.908799000038726 ], [ 107.61893300008001, -6.908821999638596 ], [ 107.61900800026228, -6.908846000052437 ], [ 107.61972000007735, -6.909043999913071 ], [ 107.62005400038234, -6.909133000122369 ], [ 107.62032600011121, -6.909216000079419 ], [ 107.62065399993553, -6.909297000025477 ], [ 107.62105599976307, -6.909347000352167 ], [ 107.62107499957156, -6.909346999710226 ], [ 107.62117599996958, -6.909310999919279 ], [ 107.6214050003698, -6.909319999845118 ], [ 107.62179299960574, -6.909406999797519 ], [ 107.6235459996049, -6.909812000218712 ], [ 107.62370899960221, -6.909853999569211 ], [ 107.6249990003967, -6.91014700013501 ], [ 107.62530299985357, -6.910216000452171 ], [ 107.62566799958533, -6.910307999706388 ], [ 107.6258579999098, -6.910239999924763 ], [ 107.62597800012172, -6.910154000007721 ], [ 107.62599899971319, -6.910140000202137 ], [ 107.62619399972432, -6.910334999782705 ], [ 107.6264370002728, -6.910562000039223 ], [ 107.62657399994472, -6.910680000269726 ], [ 107.62676400040421, -6.910899999959846 ], [ 107.62697700007759, -6.911116000386433 ], [ 107.62699700017708, -6.911136000323237 ], [ 107.62709400005636, -6.911188000013555 ], [ 107.62737599968989, -6.911400000227334 ], [ 107.62761200017556, -6.911588999908272 ], [ 107.62764099990413, -6.911610999654969 ], [ 107.6278710000944, -6.911802999896135 ], [ 107.62830299966582, -6.912271999955671 ], [ 107.62859000002858, -6.912666000212734 ], [ 107.62887800003585, -6.913128000211263 ], [ 107.62921200027581, -6.913697999826772 ], [ 107.62943999972786, -6.914421000023478 ], [ 107.62960200034695, -6.914876999751649 ], [ 107.62960300009422, -6.914906999637332 ], [ 107.62960399960849, -6.914917999893305 ], [ 107.62983700000544, -6.915384999599948 ], [ 107.62997399956083, -6.915712999655954 ], [ 107.62998200022382, -6.915742000235774 ], [ 107.62996699987762, -6.915758000358175 ], [ 107.62986400040339, -6.915845000097893 ], [ 107.62953600035866, -6.916001000398134 ], [ 107.62938799980186, -6.916070999553856 ], [ 107.6289769998501, -6.916265000283447 ], [ 107.62879400000372, -6.916373000410081 ], [ 107.62865199969774, -6.9164570002481 ], [ 107.6284110002433, -6.916596999760796 ], [ 107.6280980003644, -6.916772000254955 ], [ 107.6280850004086, -6.916789999967452 ], [ 107.62799799956997, -6.916839999842965 ], [ 107.62777700028609, -6.916932999981018 ], [ 107.6273260003485, -6.91716499957188 ], [ 107.62731800013606, -6.917174000029061 ], [ 107.62731200037965, -6.917175999550128 ], [ 107.62729099999174, -6.917184000050445 ], [ 107.62713300018929, -6.917275000154565 ], [ 107.62662100024771, -6.917557000111334 ], [ 107.62588500012728, -6.91798100026325 ], [ 107.62547699969804, -6.918169000229669 ], [ 107.62524299974498, -6.918270999629913 ], [ 107.62499899978428, -6.918406999662817 ], [ 107.62494300008481, -6.918438999574813 ], [ 107.6248790003937, -6.918474000445862 ], [ 107.62460499988707, -6.91864299993293 ], [ 107.62426200001038, -6.918834000404383 ], [ 107.62423299984027, -6.918858000191226 ], [ 107.62412899987372, -6.918925000243368 ], [ 107.62368299986187, -6.91913100038742 ], [ 107.62336699966575, -6.919286000113805 ], [ 107.62288800003425, -6.919529000142852 ], [ 107.62217299965768, -6.91991399958762 ], [ 107.62187199959287, -6.920087999760359 ], [ 107.62185799980358, -6.920093999626954 ], [ 107.62170999955492, -6.920170999838111 ], [ 107.62115799955583, -6.920420000401889 ], [ 107.62070100033041, -6.920671000005371 ], [ 107.62067299970145, -6.920692000298109 ], [ 107.62044999957577, -6.920815000394144 ], [ 107.62025399998069, -6.920909000003507 ], [ 107.62009300021747, -6.921001000248348 ], [ 107.61986899993148, -6.92112799993517 ], [ 107.61967799957883, -6.921238000338777 ], [ 107.61949399958289, -6.921331000140443 ], [ 107.61944200007697, -6.921348000107591 ], [ 107.61940500024386, -6.921364999666877 ], [ 107.61926900018345, -6.921433999924281 ], [ 107.61912700001434, -6.921502999774956 ], [ 107.61893099999018, -6.921639999552371 ], [ 107.61884000029031, -6.921694999708837 ], [ 107.61868299978477, -6.921789000069623 ], [ 107.61782799995748, -6.922247000198755 ], [ 107.61760899999045, -6.922385000189746 ], [ 107.61733699961279, -6.922392000330495 ], [ 107.61683200015162, -6.922339000092941 ], [ 107.61522499992485, -6.922150000166651 ], [ 107.61504899997411, -6.922128999908798 ], [ 107.61488600043047, -6.922108999835492 ], [ 107.61389699985533, -6.921971999853618 ], [ 107.61386800025281, -6.92196900003533 ], [ 107.61372700017733, -6.92195399971988 ], [ 107.61357899992662, -6.921940000261587 ], [ 107.61199799971909, -6.921747999785297 ], [ 107.61178799985458, -6.921733000189443 ], [ 107.61113200029129, -6.92165099959571 ], [ 107.61077400006361, -6.921610999576151 ], [ 107.60996599965138, -6.921507999839119 ], [ 107.60983199987957, -6.921483000357098 ], [ 107.60980900012376, -6.92147699964235 ], [ 107.60980800013519, -6.921454000091166 ], [ 107.60941800002323, -6.92142900041861 ], [ 107.60874099983967, -6.921354999713834 ], [ 107.6086419995798, -6.921342999783256 ], [ 107.60830800007241, -6.921311000107294 ], [ 107.60821700044103, -6.921301999795415 ], [ 107.60800899984467, -6.921261999685682 ], [ 107.60794400033234, -6.92125700008737 ], [ 107.60774900010225, -6.921244000193621 ], [ 107.60771599990382, -6.92124300007376 ], [ 107.6074850000243, -6.92121799958394 ], [ 107.60677700040603, -6.921170000382895 ], [ 107.60648199991149, -6.921121999948699 ], [ 107.60645800019921, -6.921105000362689 ], [ 107.60640000007953, -6.921100999598865 ], [ 107.60509000024783, -6.920921000279088 ] ] ] } }
    ]
}